<?xml version="1.0" encoding="UTF-8" standalone="no"?>
<!-- Created with Inkscape (http://www.inkscape.org/) -->

<svg
   xmlns:dc="http://purl.org/dc/elements/1.1/"
   xmlns:cc="http://creativecommons.org/ns#"
   xmlns:rdf="http://www.w3.org/1999/02/22-rdf-syntax-ns#"
   xmlns:svg="http://www.w3.org/2000/svg"
   xmlns="http://www.w3.org/2000/svg"
   xmlns:sodipodi="http://sodipodi.sourceforge.net/DTD/sodipodi-0.dtd"
   xmlns:inkscape="http://www.inkscape.org/namespaces/inkscape"
   width="210mm"
   height="1100mm"
   viewBox="0 0 210 1100"
   version="1.1"
   id="svg8"
   inkscape:version="0.92.1 r15371"
   sodipodi:docname="all message.svg">
  <defs
     id="defs2" />
  <sodipodi:namedview
     id="base"
     pagecolor="#ffffff"
     bordercolor="#666666"
     borderopacity="1.0"
     inkscape:pageopacity="0.0"
     inkscape:pageshadow="2"
     inkscape:zoom="0.54170354"
     inkscape:cx="246.2621"
     inkscape:cy="3550.4033"
     inkscape:document-units="mm"
     inkscape:current-layer="layer1"
     showgrid="false"
     inkscape:window-width="1366"
     inkscape:window-height="706"
     inkscape:window-x="-8"
     inkscape:window-y="-8"
     inkscape:window-maximized="1" />
  <metadata
     id="metadata5">
    <rdf:RDF>
      <cc:Work
         rdf:about="">
        <dc:format>image/svg+xml</dc:format>
        <dc:type
           rdf:resource="http://purl.org/dc/dcmitype/StillImage" />
        <dc:title></dc:title>
      </cc:Work>
    </rdf:RDF>
  </metadata>
  <g
     inkscape:label="Calque 1"
     inkscape:groupmode="layer"
     id="layer1"
     transform="translate(0,803)">
    <text
       xml:space="preserve"
       style="font-style:normal;font-variant:normal;font-weight:normal;font-stretch:normal;font-size:7.05555534px;line-height:1.25;font-family:'8514oem';-inkscape-font-specification:'8514oem';letter-spacing:0px;word-spacing:0px;fill:#000000;fill-opacity:1;stroke:none;stroke-width:0.26458332"
       x="14.8682"
       y="-720.81311"
       id="text4574"><tspan
         sodipodi:role="line"
         id="tspan4572"
         x="14.8682"
         y="-720.81311"
         style="stroke-width:0.26458332">You are welcome in the Vaqqer community. </tspan><tspan
         sodipodi:role="line"
         x="14.8682"
         y="-711.99365"
         style="stroke-width:0.26458332"
         id="tspan4576" /><tspan
         sodipodi:role="line"
         x="14.8682"
         y="-703.17419"
         style="stroke-width:0.26458332"
         id="tspan4578" /></text>
    <rect
       style="opacity:1;fill:none;fill-opacity:1;stroke:#808080;stroke-width:0.065;stroke-linecap:round;stroke-linejoin:bevel;stroke-miterlimit:4;stroke-dasharray:none;stroke-dashoffset:0;stroke-opacity:1;paint-order:normal"
       id="rect4525-0-8-4"
       width="195.7863"
       height="17.195408"
       x="5.3654795"
       y="-731.54236"
       ry="6.8724728" />
    <g
       style="stroke-width:4.24702835"
       id="g4504-8"
       transform="matrix(0.22911371,0,0,0.24197951,211.13021,-657.25198)">
      <text
         transform="scale(1.021668,0.97879157)"
         id="text4497-5-4"
         y="-269.09375"
         x="-100.7372"
         style="font-style:normal;font-variant:normal;font-weight:normal;font-stretch:normal;font-size:27.58110237px;line-height:1.25;font-family:'8514oem';-inkscape-font-specification:'8514oem';letter-spacing:0px;word-spacing:0px;fill:#000000;fill-opacity:1;stroke:none;stroke-width:4.77235556"
         xml:space="preserve"><tspan
           style="stroke-width:4.77235556"
           y="-269.09375"
           x="-100.7372"
           id="tspan4495-1-7"
           sodipodi:role="line">x</tspan></text>
      <ellipse
         ry="13.488109"
         rx="15.526026"
         cy="-270.47751"
         cx="-95.518539"
         id="path4499-1"
         style="opacity:1;fill:none;fill-opacity:1;stroke:#000000;stroke-width:2.97291994;stroke-linecap:round;stroke-linejoin:bevel;stroke-miterlimit:4;stroke-dasharray:none;stroke-dashoffset:0;stroke-opacity:1;paint-order:normal" />
    </g>
    <text
       xml:space="preserve"
       style="font-style:normal;font-variant:normal;font-weight:normal;font-stretch:normal;font-size:7.05555534px;line-height:1.25;font-family:'8514oem';-inkscape-font-specification:'8514oem';letter-spacing:0px;word-spacing:0px;fill:#000000;fill-opacity:1;stroke:none;stroke-width:0.26458332"
       x="175.40218"
       y="-393.3429"
       id="text4760"><tspan
         sodipodi:role="line"
         id="tspan4758"
         x="175.40218"
         y="-387.10037"
         style="stroke-width:0.26458332" /></text>
    <text
       xml:space="preserve"
       style="font-style:normal;font-variant:normal;font-weight:normal;font-stretch:normal;font-size:7.05555534px;line-height:1.25;font-family:'8514oem';-inkscape-font-specification:'8514oem';letter-spacing:0px;word-spacing:0px;fill:#000000;fill-opacity:1;stroke:none;stroke-width:0.26458332"
       x="15.019027"
       y="-750.21619"
       id="text4487-1-3"><tspan
         sodipodi:role="line"
         id="tspan4485-5-8"
         x="15.019027"
         y="-750.21619"
         style="stroke-width:0.26458332">You are log out, see you soon.</tspan></text>
    <rect
       style="opacity:1;fill:none;fill-opacity:1;stroke:#808080;stroke-width:0.065;stroke-linecap:round;stroke-linejoin:bevel;stroke-miterlimit:4;stroke-dasharray:none;stroke-dashoffset:0;stroke-opacity:1;paint-order:normal"
       id="rect4525-00-8"
       width="195.7863"
       height="17.195408"
       x="5.0637932"
       y="-761.07642"
       ry="6.8724728" />
    <g
       style="stroke-width:4.24702835"
       id="g4504-10-9"
       transform="matrix(0.22911371,0,0,0.24197951,210.51692,-686.42537)">
      <text
         transform="scale(1.021668,0.97879157)"
         id="text4497-5-56-4"
         y="-269.09375"
         x="-100.7372"
         style="font-style:normal;font-variant:normal;font-weight:normal;font-stretch:normal;font-size:27.58110237px;line-height:1.25;font-family:'8514oem';-inkscape-font-specification:'8514oem';letter-spacing:0px;word-spacing:0px;fill:#000000;fill-opacity:1;stroke:none;stroke-width:4.77235556"
         xml:space="preserve"><tspan
           style="stroke-width:4.77235556"
           y="-269.09375"
           x="-100.7372"
           id="tspan4495-1-26-9"
           sodipodi:role="line">x</tspan></text>
      <ellipse
         ry="13.488109"
         rx="15.526026"
         cy="-270.47751"
         cx="-95.518539"
         id="path4499-83-8"
         style="opacity:1;fill:none;fill-opacity:1;stroke:#000000;stroke-width:2.97291994;stroke-linecap:round;stroke-linejoin:bevel;stroke-miterlimit:4;stroke-dasharray:none;stroke-dashoffset:0;stroke-opacity:1;paint-order:normal" />
    </g>
    <text
       xml:space="preserve"
       style="font-style:normal;font-variant:normal;font-weight:normal;font-stretch:normal;font-size:7.05555534px;line-height:1.25;font-family:'8514oem';-inkscape-font-specification:'8514oem';letter-spacing:0px;word-spacing:0px;fill:#000000;fill-opacity:1;stroke:none;stroke-width:0.26458332"
       x="12.337277"
       y="-690.68835"
       id="text4574-8-2-9-3"><tspan
         sodipodi:role="line"
         x="12.337277"
         y="-690.68835"
         style="stroke-width:0.26458332"
         id="tspan4578-8-44-1-8">Are you sure you wanna delete this member from </tspan><tspan
         sodipodi:role="line"
         x="12.337277"
         y="-681.8689"
         style="stroke-width:0.26458332"
         id="tspan5052">your favoris ?</tspan></text>
    <rect
       style="opacity:1;fill:none;fill-opacity:1;stroke:#808080;stroke-width:0.06499999;stroke-linecap:round;stroke-linejoin:bevel;stroke-miterlimit:4;stroke-dasharray:none;stroke-dashoffset:0;stroke-opacity:1;paint-order:normal"
       id="rect4525-0-8-4-4-2-2-0"
       width="195.7863"
       height="44.403637"
       x="4.8177061"
       y="-702.24841"
       ry="17.746761" />
    <text
       xml:space="preserve"
       style="font-style:normal;font-variant:normal;font-weight:normal;font-stretch:normal;font-size:7.05555534px;line-height:1.25;font-family:'8514oem';-inkscape-font-specification:'8514oem';letter-spacing:0px;word-spacing:0px;fill:#000000;fill-opacity:1;stroke:none;stroke-width:0.26458332"
       x="166.42416"
       y="229.00803"
       id="text4760-0"><tspan
         sodipodi:role="line"
         id="tspan4758-1"
         x="166.42416"
         y="235.25053"
         style="stroke-width:0.26458332" /></text>
    <g
       style="stroke-width:4.24702835"
       id="g4504-8-64-7"
       transform="matrix(0.22911371,0,0,0.24197951,212.52599,-605.19926)">
      <text
         transform="scale(1.021668,0.97879157)"
         id="text4497-5-4-2-4"
         y="-269.09375"
         x="-100.7372"
         style="font-style:normal;font-variant:normal;font-weight:normal;font-stretch:normal;font-size:27.58110237px;line-height:1.25;font-family:'8514oem';-inkscape-font-specification:'8514oem';letter-spacing:0px;word-spacing:0px;fill:#000000;fill-opacity:1;stroke:none;stroke-width:4.77235556"
         xml:space="preserve"><tspan
           style="stroke-width:4.77235556"
           y="-269.09375"
           x="-100.7372"
           id="tspan4495-1-7-08-0"
           sodipodi:role="line">x</tspan></text>
      <ellipse
         ry="13.488109"
         rx="15.526026"
         cy="-270.47751"
         cx="-95.518539"
         id="path4499-1-2-8"
         style="opacity:1;fill:none;fill-opacity:1;stroke:#000000;stroke-width:2.97291994;stroke-linecap:round;stroke-linejoin:bevel;stroke-miterlimit:4;stroke-dasharray:none;stroke-dashoffset:0;stroke-opacity:1;paint-order:normal" />
    </g>
    <rect
       style="opacity:1;fill:none;fill-opacity:1;stroke:#808080;stroke-width:0.065;stroke-linecap:round;stroke-linejoin:bevel;stroke-miterlimit:4;stroke-dasharray:none;stroke-dashoffset:0;stroke-opacity:1;paint-order:normal"
       id="rect4834-7-2"
       width="34.994171"
       height="9.9552364"
       x="66.465492"
       y="-675.24768"
       ry="4.9776182" />
    <rect
       style="opacity:1;fill:none;fill-opacity:1;stroke:#808080;stroke-width:0.065;stroke-linecap:round;stroke-linejoin:bevel;stroke-miterlimit:4;stroke-dasharray:none;stroke-dashoffset:0;stroke-opacity:1;paint-order:normal"
       id="rect4834-6-2-9"
       width="34.994171"
       height="9.9552364"
       x="113.90245"
       y="-675.24518"
       ry="4.9776182" />
    <text
       xml:space="preserve"
       style="font-style:normal;font-variant:normal;font-weight:normal;font-stretch:normal;font-size:4.93888903px;line-height:1.25;font-family:'8514oem';-inkscape-font-specification:'8514oem';letter-spacing:0px;word-spacing:0px;fill:#000000;fill-opacity:1;stroke:none;stroke-width:0.26458332"
       x="77.998329"
       y="-668.38312"
       id="text4853-6-3"><tspan
         sodipodi:role="line"
         id="tspan4851-12-7"
         x="77.998329"
         y="-668.38312"
         style="font-size:4.93888903px;stroke-width:0.26458332">Yes</tspan></text>
    <text
       xml:space="preserve"
       style="font-style:normal;font-variant:normal;font-weight:normal;font-stretch:normal;font-size:6.3499999px;line-height:1.25;font-family:'8514oem';-inkscape-font-specification:'8514oem';letter-spacing:0px;word-spacing:0px;fill:#000000;fill-opacity:1;stroke:none;stroke-width:0.26458332"
       x="127.48265"
       y="-668.60571"
       id="text4857-7-0"><tspan
         sodipodi:role="line"
         id="tspan4855-0-2"
         x="127.48265"
         y="-668.60571"
         style="font-size:4.93888903px;stroke-width:0.26458332">No</tspan></text>
    <text
       xml:space="preserve"
       style="font-style:normal;font-variant:normal;font-weight:normal;font-stretch:normal;font-size:7.05555534px;line-height:1.25;font-family:'8514oem';-inkscape-font-specification:'8514oem';letter-spacing:0px;word-spacing:0px;fill:#000000;fill-opacity:1;stroke:none;stroke-width:0.26458332"
       x="14.320425"
       y="-640.76538"
       id="text4574-4-6-29-1"><tspan
         sodipodi:role="line"
         x="14.320425"
         y="-640.76538"
         style="stroke-width:0.26458332"
         id="tspan4578-4-6-0-4">All the fields are required</tspan></text>
    <rect
       style="opacity:1;fill:none;fill-opacity:1;stroke:#808080;stroke-width:0.065;stroke-linecap:round;stroke-linejoin:bevel;stroke-miterlimit:4;stroke-dasharray:none;stroke-dashoffset:0;stroke-opacity:1;paint-order:normal"
       id="rect4525-0-8-4-5-3-1-0"
       width="195.7863"
       height="17.195408"
       x="4.8177061"
       y="-651.49469"
       ry="6.8724728" />
    <g
       style="stroke-width:4.24702835"
       id="g4504-8-9-2-4-0"
       transform="matrix(0.22911371,0,0,0.24197951,210.58252,-577.2044)">
      <text
         transform="scale(1.021668,0.97879157)"
         id="text4497-5-4-36-6-6-4"
         y="-269.09375"
         x="-100.7372"
         style="font-style:normal;font-variant:normal;font-weight:normal;font-stretch:normal;font-size:27.58110237px;line-height:1.25;font-family:'8514oem';-inkscape-font-specification:'8514oem';letter-spacing:0px;word-spacing:0px;fill:#000000;fill-opacity:1;stroke:none;stroke-width:4.77235556"
         xml:space="preserve"><tspan
           style="stroke-width:4.77235556"
           y="-269.09375"
           x="-100.7372"
           id="tspan4495-1-7-3-5-6-5"
           sodipodi:role="line">x</tspan></text>
      <ellipse
         ry="13.488109"
         rx="15.526026"
         cy="-270.47751"
         cx="-95.518539"
         id="path4499-1-72-6-7-8"
         style="opacity:1;fill:none;fill-opacity:1;stroke:#000000;stroke-width:2.97291994;stroke-linecap:round;stroke-linejoin:bevel;stroke-miterlimit:4;stroke-dasharray:none;stroke-dashoffset:0;stroke-opacity:1;paint-order:normal" />
    </g>
    <flowRoot
       xml:space="preserve"
       id="flowRoot5727"
       style="font-style:normal;font-variant:normal;font-weight:normal;font-stretch:normal;font-size:24px;line-height:1.25;font-family:'8514oem';-inkscape-font-specification:'8514oem';letter-spacing:0px;word-spacing:0px;fill:#000000;fill-opacity:1;stroke:none"><flowRegion
         id="flowRegion5729"><rect
           id="rect5731"
           width="777.17786"
           height="243.67572"
           x="306.44067"
           y="3919.8257" /></flowRegion><flowPara
         id="flowPara5733" /></flowRoot>    <text
       xml:space="preserve"
       style="font-style:normal;font-variant:normal;font-weight:normal;font-stretch:normal;font-size:6.3499999px;line-height:1.25;font-family:'8514oem';-inkscape-font-specification:'8514oem';letter-spacing:0px;word-spacing:0px;fill:#000000;fill-opacity:1;stroke:none;stroke-width:0.26458332"
       x="10.256993"
       y="352.68085"
       id="text5745"><tspan
         sodipodi:role="line"
         id="tspan5743"
         x="10.256993"
         y="358.2991"
         style="stroke-width:0.26458332" /></text>
    <text
       xml:space="preserve"
       style="font-style:normal;font-variant:normal;font-weight:normal;font-stretch:normal;font-size:7.05555534px;line-height:1.25;font-family:'8514oem';-inkscape-font-specification:'8514oem';letter-spacing:0px;word-spacing:0px;fill:#000000;fill-opacity:1;stroke:none;stroke-width:0.26458332"
       x="14.566517"
       y="-785.80634"
       id="text4574-8-9-7"><tspan
         sodipodi:role="line"
         x="14.566517"
         y="-785.80634"
         style="stroke-width:0.26458332"
         id="tspan4578-8-4-3">More than 18 years old ?</tspan></text>
    <rect
       style="opacity:1;fill:none;fill-opacity:1;stroke:#808080;stroke-width:0.065;stroke-linecap:round;stroke-linejoin:bevel;stroke-miterlimit:4;stroke-dasharray:none;stroke-dashoffset:0;stroke-opacity:1;paint-order:normal"
       id="rect4525-0-8-4-4-7-6"
       width="195.7863"
       height="30.167385"
       x="5.0637932"
       y="-796.53552"
       ry="12.05697" />
    <g
       style="stroke-width:4.24702835"
       id="g4504-8-6-8"
       transform="matrix(0.22911371,0,0,0.24197951,210.57626,-710.80663)">
      <text
         transform="scale(1.021668,0.97879157)"
         id="text4497-5-4-3-8"
         y="-269.09375"
         x="-100.7372"
         style="font-style:normal;font-variant:normal;font-weight:normal;font-stretch:normal;font-size:27.58110237px;line-height:1.25;font-family:'8514oem';-inkscape-font-specification:'8514oem';letter-spacing:0px;word-spacing:0px;fill:#000000;fill-opacity:1;stroke:none;stroke-width:4.77235556"
         xml:space="preserve"><tspan
           style="stroke-width:4.77235556"
           y="-269.09375"
           x="-100.7372"
           id="tspan4495-1-7-27-4"
           sodipodi:role="line">x</tspan></text>
      <ellipse
         ry="13.488109"
         rx="15.526026"
         cy="-270.47751"
         cx="-95.518539"
         id="path4499-1-7-5"
         style="opacity:1;fill:none;fill-opacity:1;stroke:#000000;stroke-width:2.97291994;stroke-linecap:round;stroke-linejoin:bevel;stroke-miterlimit:4;stroke-dasharray:none;stroke-dashoffset:0;stroke-opacity:1;paint-order:normal" />
    </g>
    <rect
       style="opacity:1;fill:none;fill-opacity:1;stroke:#808080;stroke-width:0.065;stroke-linecap:round;stroke-linejoin:bevel;stroke-miterlimit:4;stroke-dasharray:none;stroke-dashoffset:0;stroke-opacity:1;paint-order:normal"
       id="rect4834-0"
       width="34.994167"
       height="9.9552364"
       x="62.893665"
       y="-779.30322"
       ry="4.9776182" />
    <rect
       style="opacity:1;fill:none;fill-opacity:1;stroke:#808080;stroke-width:0.065;stroke-linecap:round;stroke-linejoin:bevel;stroke-miterlimit:4;stroke-dasharray:none;stroke-dashoffset:0;stroke-opacity:1;paint-order:normal"
       id="rect4834-6-6"
       width="34.994171"
       height="9.9552364"
       x="110.33064"
       y="-779.30072"
       ry="4.9776182" />
    <text
       xml:space="preserve"
       style="font-style:normal;font-variant:normal;font-weight:normal;font-stretch:normal;font-size:4.93888903px;line-height:1.25;font-family:'8514oem';-inkscape-font-specification:'8514oem';letter-spacing:0px;word-spacing:0px;fill:#000000;fill-opacity:1;stroke:none;stroke-width:0.26458332"
       x="74.426498"
       y="-772.4389"
       id="text4853-1"><tspan
         sodipodi:role="line"
         id="tspan4851-9"
         x="74.426498"
         y="-772.4389"
         style="font-size:4.93888903px;stroke-width:0.26458332">Yes</tspan></text>
    <text
       xml:space="preserve"
       style="font-style:normal;font-variant:normal;font-weight:normal;font-stretch:normal;font-size:6.3499999px;line-height:1.25;font-family:'8514oem';-inkscape-font-specification:'8514oem';letter-spacing:0px;word-spacing:0px;fill:#000000;fill-opacity:1;stroke:none;stroke-width:0.26458332"
       x="123.91086"
       y="-772.66144"
       id="text4857-2"><tspan
         sodipodi:role="line"
         id="tspan4855-2"
         x="123.91086"
         y="-772.66144"
         style="font-size:4.93888903px;stroke-width:0.26458332">No</tspan></text>
    <text
       xml:space="preserve"
       style="font-style:normal;font-variant:normal;font-weight:normal;font-stretch:normal;font-size:7.05555534px;line-height:1.25;font-family:'8514oem';-inkscape-font-specification:'8514oem';letter-spacing:0px;word-spacing:0px;fill:#000000;fill-opacity:1;stroke:none;stroke-width:0.26458332"
       x="15.156367"
       y="-610.8103"
       id="text4574-4-6-29-1-2"><tspan
         sodipodi:role="line"
         x="15.156367"
         y="-610.8103"
         style="stroke-width:0.26458332"
         id="tspan4578-4-6-0-4-7">The member has been added to your favoris</tspan></text>
    <rect
       style="opacity:1;fill:none;fill-opacity:1;stroke:#808080;stroke-width:0.065;stroke-linecap:round;stroke-linejoin:bevel;stroke-miterlimit:4;stroke-dasharray:none;stroke-dashoffset:0;stroke-opacity:1;paint-order:normal"
       id="rect4525-0-8-4-5-3-1-0-9"
       width="195.7863"
       height="17.195408"
       x="5.6536469"
       y="-621.53961"
       ry="6.8724728" />
    <g
       style="stroke-width:4.24702835"
       id="g4504-8-9-2-4-0-6"
       transform="matrix(0.22911371,0,0,0.24197951,211.41846,-547.24926)">
      <text
         transform="scale(1.021668,0.97879157)"
         id="text4497-5-4-36-6-6-4-0"
         y="-269.09375"
         x="-100.7372"
         style="font-style:normal;font-variant:normal;font-weight:normal;font-stretch:normal;font-size:27.58110237px;line-height:1.25;font-family:'8514oem';-inkscape-font-specification:'8514oem';letter-spacing:0px;word-spacing:0px;fill:#000000;fill-opacity:1;stroke:none;stroke-width:4.77235556"
         xml:space="preserve"><tspan
           style="stroke-width:4.77235556"
           y="-269.09375"
           x="-100.7372"
           id="tspan4495-1-7-3-5-6-5-3"
           sodipodi:role="line">x</tspan></text>
      <ellipse
         ry="13.488109"
         rx="15.526026"
         cy="-270.47751"
         cx="-95.518539"
         id="path4499-1-72-6-7-8-3"
         style="opacity:1;fill:none;fill-opacity:1;stroke:#000000;stroke-width:2.97291994;stroke-linecap:round;stroke-linejoin:bevel;stroke-miterlimit:4;stroke-dasharray:none;stroke-dashoffset:0;stroke-opacity:1;paint-order:normal" />
    </g>
    <text
       xml:space="preserve"
       style="font-style:normal;font-variant:normal;font-weight:normal;font-stretch:normal;font-size:2.82222223px;line-height:1.25;font-family:'8514oem';-inkscape-font-specification:'8514oem';letter-spacing:0px;word-spacing:0px;fill:#000000;fill-opacity:1;stroke:none;stroke-width:0.26458332"
       x="227.11914"
       y="-561.65692"
       id="text4638"><tspan
         sodipodi:role="line"
         id="tspan4636"
         x="227.11914"
         y="-559.15991"
         style="stroke-width:0.26458332"></tspan><tspan
         sodipodi:role="line"
         x="227.11914"
         y="-555.63214"
         style="stroke-width:0.26458332"
         id="tspan4640" /></text>
  </g>
</svg>
