<?xml version="1.0" encoding="UTF-8" standalone="no"?>
<!-- Created with Inkscape (http://www.inkscape.org/) -->

<svg
   xmlns:dc="http://purl.org/dc/elements/1.1/"
   xmlns:cc="http://creativecommons.org/ns#"
   xmlns:rdf="http://www.w3.org/1999/02/22-rdf-syntax-ns#"
   xmlns:svg="http://www.w3.org/2000/svg"
   xmlns="http://www.w3.org/2000/svg"
   xmlns:sodipodi="http://sodipodi.sourceforge.net/DTD/sodipodi-0.dtd"
   xmlns:inkscape="http://www.inkscape.org/namespaces/inkscape"
   width="148mm"
   height="400mm"
   viewBox="0 0 148 400"
   version="1.1"
   id="svg8"
   inkscape:version="0.92.1 r15371"
   sodipodi:docname="languages.svg">
  <defs
     id="defs2">
    <inkscape:path-effect
       only_selected="false"
       apply_with_weight="true"
       apply_no_weight="true"
       helper_size="0"
       steps="2"
       weight="33.333333"
       is_visible="true"
       id="path-effect112-33-1"
       effect="bspline" />
    <inkscape:path-effect
       only_selected="false"
       apply_with_weight="true"
       apply_no_weight="true"
       helper_size="0"
       steps="2"
       weight="33.333333"
       is_visible="true"
       id="path-effect112-33"
       effect="bspline" />
    <inkscape:path-effect
       only_selected="false"
       apply_with_weight="true"
       apply_no_weight="true"
       helper_size="0"
       steps="2"
       weight="33.333333"
       is_visible="true"
       id="path-effect112-3"
       effect="bspline" />
    <inkscape:path-effect
       only_selected="false"
       apply_with_weight="true"
       apply_no_weight="true"
       helper_size="0"
       steps="2"
       weight="33.333333"
       is_visible="true"
       id="path-effect112"
       effect="bspline" />
    <inkscape:path-effect
       only_selected="false"
       apply_with_weight="true"
       apply_no_weight="true"
       helper_size="0"
       steps="2"
       weight="33.333333"
       is_visible="true"
       id="path-effect112-6"
       effect="bspline" />
    <inkscape:path-effect
       only_selected="false"
       apply_with_weight="true"
       apply_no_weight="true"
       helper_size="0"
       steps="2"
       weight="33.333333"
       is_visible="true"
       id="path-effect112-33-0"
       effect="bspline" />
    <inkscape:path-effect
       only_selected="false"
       apply_with_weight="true"
       apply_no_weight="true"
       helper_size="0"
       steps="2"
       weight="33.333333"
       is_visible="true"
       id="path-effect112-5"
       effect="bspline" />
    <inkscape:path-effect
       only_selected="false"
       apply_with_weight="true"
       apply_no_weight="true"
       helper_size="0"
       steps="2"
       weight="33.333333"
       is_visible="true"
       id="path-effect112-6-9"
       effect="bspline" />
  </defs>
  <sodipodi:namedview
     id="base"
     pagecolor="#ffffff"
     bordercolor="#666666"
     borderopacity="1.0"
     inkscape:pageopacity="0.0"
     inkscape:pageshadow="2"
     inkscape:zoom="0.68593502"
     inkscape:cx="162.29992"
     inkscape:cy="1400.5314"
     inkscape:document-units="mm"
     inkscape:current-layer="layer1"
     showgrid="false"
     inkscape:window-width="1366"
     inkscape:window-height="706"
     inkscape:window-x="-8"
     inkscape:window-y="-8"
     inkscape:window-maximized="1"
     showguides="true"
     inkscape:guide-bbox="true"
     units="mm">
    <sodipodi:guide
       position="179.37853,213.46045"
       orientation="1,0"
       id="guide4570"
       inkscape:locked="false" />
    <sodipodi:guide
       position="64.030607,367.98311"
       orientation="1,0"
       id="guide4587"
       inkscape:locked="false" />
    <sodipodi:guide
       position="-94.88873,378.39772"
       orientation="1,0"
       id="guide4589"
       inkscape:locked="false" />
    <sodipodi:guide
       position="24.300772,371.45465"
       orientation="0,1"
       id="guide4591"
       inkscape:locked="false" />
    <sodipodi:guide
       position="35.486842,356.02558"
       orientation="0,1"
       id="guide4593"
       inkscape:locked="false" />
    <sodipodi:guide
       position="27.000858,340.2108"
       orientation="0,1"
       id="guide4595"
       inkscape:locked="false" />
  </sodipodi:namedview>
  <metadata
     id="metadata5">
    <rdf:RDF>
      <cc:Work
         rdf:about="">
        <dc:format>image/svg+xml</dc:format>
        <dc:type
           rdf:resource="http://purl.org/dc/dcmitype/StillImage" />
        <dc:title></dc:title>
      </cc:Work>
    </rdf:RDF>
  </metadata>
  <g
     inkscape:label="Calque 1"
     inkscape:groupmode="layer"
     id="layer1"
     transform="translate(0,103)">
    <text
       xml:space="preserve"
       style="font-style:normal;font-variant:normal;font-weight:normal;font-stretch:normal;font-size:3.52777767px;line-height:1.25;font-family:'8514oem';-inkscape-font-specification:'8514oem';letter-spacing:0px;word-spacing:0px;fill:#000000;fill-opacity:1;stroke:none;stroke-width:0.26458332"
       x="97.961723"
       y="132.87115"
       id="text4497"><tspan
         sodipodi:role="line"
         id="tspan4495"
         x="97.961723"
         y="135.99242"
         style="stroke-width:0.26458332" /></text>
    <flowRoot
       xml:space="preserve"
       id="flowRoot4546"
       style="font-style:normal;font-variant:normal;font-weight:normal;font-stretch:normal;font-size:13.33333302px;line-height:1.25;font-family:'8514oem';-inkscape-font-specification:'8514oem';letter-spacing:0px;word-spacing:0px;fill:#000000;fill-opacity:1;stroke:none"><flowRegion
         id="flowRegion4548"><rect
           id="rect4550"
           width="938.61371"
           height="152.64653"
           x="-22.734589"
           y="113.28705" /></flowRegion><flowPara
         id="flowPara4552" /></flowRoot>    <g
       id="g4769"
       transform="matrix(1.3665218,0,0,1.4917595,-17.179367,-96.738144)"
       style="stroke-width:0.70039374">
      <g
         id="g4749"
         style="stroke-width:0.70039374" />
    </g>
    <flowRoot
       xml:space="preserve"
       id="flowRoot4757"
       style="font-style:normal;font-variant:normal;font-weight:normal;font-stretch:normal;font-size:13.33333302px;line-height:1.25;font-family:'8514oem';-inkscape-font-specification:'8514oem';letter-spacing:0px;word-spacing:0px;fill:#000000;fill-opacity:1;stroke:none"><flowRegion
         id="flowRegion4759"><rect
           id="rect4761"
           width="253.32828"
           height="77.947159"
           x="415.7182"
           y="150.63673" /></flowRegion><flowPara
         id="flowPara4763" /></flowRoot>    <flowRoot
       xml:space="preserve"
       id="flowRoot4771"
       style="font-style:normal;font-variant:normal;font-weight:normal;font-stretch:normal;font-size:13.33333302px;line-height:1.25;font-family:'8514oem';-inkscape-font-specification:'8514oem';letter-spacing:0px;word-spacing:0px;fill:#000000;fill-opacity:1;stroke:none"><flowRegion
         id="flowRegion4773"><rect
           id="rect4775"
           width="190.04518"
           height="60.259972"
           x="241.70439"
           y="341.88071" /></flowRegion><flowPara
         id="flowPara4777" /></flowRoot>    <text
       xml:space="preserve"
       style="font-style:normal;font-variant:normal;font-weight:normal;font-stretch:normal;font-size:3.52777767px;line-height:1.25;font-family:'8514oem';-inkscape-font-specification:'8514oem';letter-spacing:0px;word-spacing:0px;fill:#000000;fill-opacity:1;stroke:none;stroke-width:0.26458332"
       x="83.548615"
       y="183.6777"
       id="text4798"><tspan
         sodipodi:role="line"
         id="tspan4796"
         x="83.548615"
         y="186.79897"
         style="stroke-width:0.26458332" /><tspan
         sodipodi:role="line"
         x="83.548615"
         y="191.20868"
         style="stroke-width:0.26458332"
         id="tspan4800" /></text>
    <text
       id="text4678"
       y="108.39516"
       x="194.03587"
       style="font-style:normal;font-variant:normal;font-weight:normal;font-stretch:normal;font-size:3.52777767px;line-height:1.25;font-family:'8514oem';-inkscape-font-specification:'8514oem';letter-spacing:0px;word-spacing:0px;fill:#000000;fill-opacity:1;stroke:none;stroke-width:0.26458332"
       xml:space="preserve"><tspan
         style="stroke-width:0.26458332"
         y="111.51641"
         x="194.03587"
         id="tspan4676"
         sodipodi:role="line" /><tspan
         id="tspan4680"
         style="stroke-width:0.26458332"
         y="115.92613"
         x="194.03587"
         sodipodi:role="line" /></text>
    <g
       transform="translate(-79.016255,41.193806)"
       id="g4593">
      <text
         id="text4607"
         y="184.50323"
         x="136.86583"
         style="font-style:normal;font-variant:normal;font-weight:normal;font-stretch:normal;font-size:3.52777767px;line-height:1.25;font-family:'8514oem';-inkscape-font-specification:'8514oem';letter-spacing:0px;word-spacing:0px;fill:#000000;fill-opacity:1;stroke:none;stroke-width:0.26458332"
         xml:space="preserve"><tspan
           style="stroke-width:0.26458332"
           y="187.6245"
           x="136.86583"
           id="tspan4605"
           sodipodi:role="line" /></text>
    </g>
    <text
       id="text4646"
       y="-90.908546"
       x="6.935832"
       style="font-style:normal;font-variant:normal;font-weight:normal;font-stretch:normal;font-size:3.52777767px;line-height:1.25;font-family:'8514oem';-inkscape-font-specification:'8514oem';letter-spacing:0px;word-spacing:0px;fill:#ff0000;fill-opacity:1;stroke:none;stroke-width:0.26458332"
       xml:space="preserve"><tspan
         style="font-size:4.23333311px;fill:#ff0000;stroke-width:0.26458332"
         y="-90.908546"
         x="6.935832"
         id="tspan4644"
         sodipodi:role="line">Language</tspan></text>
    <text
       id="text4616-5"
       y="175.49384"
       x="124.63668"
       style="font-style:normal;font-variant:normal;font-weight:normal;font-stretch:normal;font-size:3.52777767px;line-height:1.25;font-family:'8514oem';-inkscape-font-specification:'8514oem';letter-spacing:0px;word-spacing:0px;fill:#000000;fill-opacity:1;stroke:none;stroke-width:0.26458332"
       xml:space="preserve"><tspan
         style="font-size:4.93888903px;stroke-width:0.26458332"
         y="178.6151"
         x="124.63668"
         id="tspan4614-4"
         sodipodi:role="line" /></text>
    <flowRoot
       style="font-style:normal;font-variant:normal;font-weight:normal;font-stretch:normal;font-size:13.33333302px;line-height:1.25;font-family:'8514oem';-inkscape-font-specification:'8514oem';letter-spacing:0px;word-spacing:0px;fill:#000000;fill-opacity:1;stroke:none"
       id="flowRoot4844"
       xml:space="preserve"
       transform="translate(0.52916667,45.678273)"><flowRegion
         id="flowRegion4846"><rect
           y="381.8364"
           x="-481.35593"
           height="301.69492"
           width="154.23729"
           id="rect4848" /></flowRegion><flowPara
         id="flowPara4850" /></flowRoot>    <flowRoot
       style="font-style:normal;font-variant:normal;font-weight:normal;font-stretch:normal;font-size:13.33333302px;line-height:1.25;font-family:'8514oem';-inkscape-font-specification:'8514oem';letter-spacing:0px;word-spacing:0px;fill:#000000;fill-opacity:1;stroke:none"
       id="flowRoot4922"
       xml:space="preserve"
       transform="translate(0.52916667,45.678273)"><flowRegion
         id="flowRegion4924"><rect
           y="67.83638"
           x="2.6101654"
           height="20.779659"
           width="34.677971"
           id="rect4926" /></flowRegion><flowPara
         id="flowPara4928" /></flowRoot>    <flowRoot
       style="font-style:normal;font-variant:normal;font-weight:normal;font-stretch:normal;font-size:13.33333302px;line-height:1.25;font-family:'8514oem';-inkscape-font-specification:'8514oem';letter-spacing:0px;word-spacing:0px;fill:#000000;fill-opacity:1;stroke:none"
       id="flowRoot4783"
       xml:space="preserve"
       transform="translate(0.52916667,45.678273)"><flowRegion
         id="flowRegion4785"><rect
           y="119.17786"
           x="-83.887367"
           height="416.01288"
           width="761.85345"
           id="rect4787" /></flowRegion><flowPara
         id="flowPara4789" /></flowRoot>    <flowRoot
       style="font-style:normal;font-variant:normal;font-weight:normal;font-stretch:normal;font-size:13.33333302px;line-height:1.25;font-family:'8514oem';-inkscape-font-specification:'8514oem';letter-spacing:0px;word-spacing:0px;fill:#000000;fill-opacity:1;stroke:none"
       id="flowRoot4845"
       xml:space="preserve"
       transform="translate(0.52916667,45.678273)"><flowRegion
         id="flowRegion4847"><rect
           y="-56.369179"
           x="83.887367"
           height="169.48672"
           width="354.38135"
           id="rect4849" /></flowRegion><flowPara
         id="flowPara4851" /></flowRoot>    <flowRoot
       xml:space="preserve"
       id="flowRoot4731"
       style="fill:black;fill-opacity:1;stroke:none;font-family:'8514oem';font-style:normal;font-weight:normal;font-size:13.33333333px;line-height:1.25;letter-spacing:0px;word-spacing:0px;-inkscape-font-specification:'8514oem';font-stretch:normal;font-variant:normal"><flowRegion
         id="flowRegion4733"><rect
           id="rect4735"
           width="208.86243"
           height="121.55109"
           x="-71.903458"
           y="-40.961304" /></flowRegion><flowPara
         id="flowPara4737" /></flowRoot>    <g
       id="g4712"
       transform="matrix(1.6772644,0,0,0.71329934,188.72071,3.9414934)"
       style="fill:#00ba00;stroke-width:0.9142465">
      <g
         id="g4717"
         style="stroke-width:0.9142465">
        <g
           id="g4722"
           transform="translate(1.4101598,-28.994583)"
           style="stroke-width:0.9142465" />
      </g>
    </g>
    <flowRoot
       xml:space="preserve"
       id="flowRoot4667"
       style="fill:black;fill-opacity:1;stroke:none;font-family:'8514oem';font-style:normal;font-weight:normal;font-size:13.33333333px;line-height:1.25;letter-spacing:0px;word-spacing:0px;-inkscape-font-specification:'8514oem';font-stretch:normal;font-variant:normal"><flowRegion
         id="flowRegion4669"><rect
           id="rect4671"
           width="723.44708"
           height="442.10657"
           x="-80.383011"
           y="729.75134" /></flowRegion><flowPara
         id="flowPara4673" /></flowRoot>    <text
       xml:space="preserve"
       style="font-style:normal;font-variant:normal;font-weight:normal;font-stretch:normal;font-size:12.36664104px;line-height:1.25;font-family:'8514oem';-inkscape-font-specification:'8514oem';letter-spacing:0px;word-spacing:0px;fill:#000000;fill-opacity:1;stroke:none;stroke-width:0.26458332"
       x="7.5324206"
       y="-71.645416"
       id="text4582"><tspan
         sodipodi:role="line"
         x="7.5324206"
         y="-71.645416"
         style="font-size:5.64444447px;stroke-width:0.26458332"
         id="tspan4586">French </tspan><tspan
         sodipodi:role="line"
         x="7.5324206"
         y="-56.187115"
         style="font-size:5.64444447px;stroke-width:0.26458332"
         id="tspan4592">English </tspan><tspan
         sodipodi:role="line"
         x="7.5324206"
         y="-40.728813"
         style="font-size:5.64444447px;stroke-width:0.26458332"
         id="tspan103">Arabic</tspan><tspan
         sodipodi:role="line"
         x="7.5324206"
         y="-25.270512"
         style="font-size:5.64444447px;stroke-width:0.26458332"
         id="tspan4612" /><tspan
         sodipodi:role="line"
         x="7.5324206"
         y="-9.812211"
         style="font-size:5.64444447px;stroke-width:0.26458332"
         id="tspan4618" /></text>
    <circle
       style="opacity:1;fill:none;fill-opacity:1;stroke:#000000;stroke-width:0.69999999;stroke-linecap:round;stroke-linejoin:bevel;stroke-miterlimit:4;stroke-dasharray:none;stroke-dashoffset:0;stroke-opacity:1;paint-order:normal"
       id="path4555"
       cx="132.47443"
       cy="-73.122787"
       r="2.4369588" />
    <circle
       style="opacity:1;fill:#000000;fill-opacity:1;stroke:#000000;stroke-width:0.69999999;stroke-linecap:round;stroke-linejoin:bevel;stroke-miterlimit:4;stroke-dasharray:none;stroke-dashoffset:0;stroke-opacity:1;paint-order:normal"
       id="path4555-9"
       cx="132.32753"
       cy="-58.152119"
       r="2.4369588" />
    <circle
       style="opacity:1;fill:none;fill-opacity:1;stroke:#000000;stroke-width:0.69999999;stroke-linecap:round;stroke-linejoin:bevel;stroke-miterlimit:4;stroke-dasharray:none;stroke-dashoffset:0;stroke-opacity:1;paint-order:normal"
       id="path4555-9-5"
       cx="132.38042"
       cy="-42.439346"
       r="2.4369588" />
  </g>
</svg>
