<?xml version="1.0" encoding="UTF-8" standalone="no"?>
<!-- Created with Inkscape (http://www.inkscape.org/) -->

<svg
   xmlns:dc="http://purl.org/dc/elements/1.1/"
   xmlns:cc="http://creativecommons.org/ns#"
   xmlns:rdf="http://www.w3.org/1999/02/22-rdf-syntax-ns#"
   xmlns:svg="http://www.w3.org/2000/svg"
   xmlns="http://www.w3.org/2000/svg"
   xmlns:sodipodi="http://sodipodi.sourceforge.net/DTD/sodipodi-0.dtd"
   xmlns:inkscape="http://www.inkscape.org/namespaces/inkscape"
   width="297mm"
   height="210mm"
   viewBox="0 0 297 210"
   version="1.1"
   id="svg8"
   inkscape:version="0.92.1 r15371"
   sodipodi:docname="parameters.svg">
  <defs
     id="defs2">
    <inkscape:path-effect
       only_selected="false"
       apply_with_weight="true"
       apply_no_weight="true"
       helper_size="0"
       steps="2"
       weight="33.333333"
       is_visible="true"
       id="path-effect112-33-1"
       effect="bspline" />
    <inkscape:path-effect
       only_selected="false"
       apply_with_weight="true"
       apply_no_weight="true"
       helper_size="0"
       steps="2"
       weight="33.333333"
       is_visible="true"
       id="path-effect112-33"
       effect="bspline" />
    <inkscape:path-effect
       only_selected="false"
       apply_with_weight="true"
       apply_no_weight="true"
       helper_size="0"
       steps="2"
       weight="33.333333"
       is_visible="true"
       id="path-effect112-3"
       effect="bspline" />
    <inkscape:path-effect
       only_selected="false"
       apply_with_weight="true"
       apply_no_weight="true"
       helper_size="0"
       steps="2"
       weight="33.333333"
       is_visible="true"
       id="path-effect112"
       effect="bspline" />
    <inkscape:path-effect
       only_selected="false"
       apply_with_weight="true"
       apply_no_weight="true"
       helper_size="0"
       steps="2"
       weight="33.333333"
       is_visible="true"
       id="path-effect112-6"
       effect="bspline" />
    <inkscape:path-effect
       only_selected="false"
       apply_with_weight="true"
       apply_no_weight="true"
       helper_size="0"
       steps="2"
       weight="33.333333"
       is_visible="true"
       id="path-effect112-33-0"
       effect="bspline" />
    <inkscape:path-effect
       only_selected="false"
       apply_with_weight="true"
       apply_no_weight="true"
       helper_size="0"
       steps="2"
       weight="33.333333"
       is_visible="true"
       id="path-effect112-5"
       effect="bspline" />
    <inkscape:path-effect
       only_selected="false"
       apply_with_weight="true"
       apply_no_weight="true"
       helper_size="0"
       steps="2"
       weight="33.333333"
       is_visible="true"
       id="path-effect112-6-9"
       effect="bspline" />
  </defs>
  <sodipodi:namedview
     id="base"
     pagecolor="#ffffff"
     bordercolor="#666666"
     borderopacity="1.0"
     inkscape:pageopacity="0.0"
     inkscape:pageshadow="2"
     inkscape:zoom="0.59"
     inkscape:cx="607.42784"
     inkscape:cy="428.87684"
     inkscape:document-units="mm"
     inkscape:current-layer="g5788"
     showgrid="false"
     inkscape:window-width="1366"
     inkscape:window-height="706"
     inkscape:window-x="-8"
     inkscape:window-y="-8"
     inkscape:window-maximized="1"
     showguides="true"
     inkscape:guide-bbox="true"
     units="mm" />
  <metadata
     id="metadata5">
    <rdf:RDF>
      <cc:Work
         rdf:about="">
        <dc:format>image/svg+xml</dc:format>
        <dc:type
           rdf:resource="http://purl.org/dc/dcmitype/StillImage" />
        <dc:title></dc:title>
      </cc:Work>
    </rdf:RDF>
  </metadata>
  <g
     inkscape:label="Calque 1"
     inkscape:groupmode="layer"
     id="layer1"
     transform="translate(0,-87)">
    <text
       xml:space="preserve"
       style="font-style:normal;font-variant:normal;font-weight:normal;font-stretch:normal;font-size:3.52777767px;line-height:1.25;font-family:'8514oem';-inkscape-font-specification:'8514oem';letter-spacing:0px;word-spacing:0px;fill:#000000;fill-opacity:1;stroke:none;stroke-width:0.26458332"
       x="97.961723"
       y="132.87115"
       id="text4497"><tspan
         sodipodi:role="line"
         id="tspan4495"
         x="97.961723"
         y="135.99242"
         style="stroke-width:0.26458332" /></text>
    <flowRoot
       xml:space="preserve"
       id="flowRoot4546"
       style="font-style:normal;font-variant:normal;font-weight:normal;font-stretch:normal;font-size:13.33333302px;line-height:1.25;font-family:'8514oem';-inkscape-font-specification:'8514oem';letter-spacing:0px;word-spacing:0px;fill:#000000;fill-opacity:1;stroke:none"><flowRegion
         id="flowRegion4548"><rect
           id="rect4550"
           width="938.61371"
           height="152.64653"
           x="-22.734589"
           y="113.28705" /></flowRegion><flowPara
         id="flowPara4552" /></flowRoot>    <g
       id="g4769"
       transform="matrix(1.3665218,0,0,1.4917595,-17.179367,-96.738144)"
       style="stroke-width:0.70039374">
      <g
         id="g4749"
         style="stroke-width:0.70039374" />
    </g>
    <flowRoot
       xml:space="preserve"
       id="flowRoot4757"
       style="font-style:normal;font-variant:normal;font-weight:normal;font-stretch:normal;font-size:13.33333302px;line-height:1.25;font-family:'8514oem';-inkscape-font-specification:'8514oem';letter-spacing:0px;word-spacing:0px;fill:#000000;fill-opacity:1;stroke:none"><flowRegion
         id="flowRegion4759"><rect
           id="rect4761"
           width="253.32828"
           height="77.947159"
           x="415.7182"
           y="150.63673" /></flowRegion><flowPara
         id="flowPara4763" /></flowRoot>    <flowRoot
       xml:space="preserve"
       id="flowRoot4771"
       style="font-style:normal;font-variant:normal;font-weight:normal;font-stretch:normal;font-size:13.33333302px;line-height:1.25;font-family:'8514oem';-inkscape-font-specification:'8514oem';letter-spacing:0px;word-spacing:0px;fill:#000000;fill-opacity:1;stroke:none"><flowRegion
         id="flowRegion4773"><rect
           id="rect4775"
           width="190.04518"
           height="60.259972"
           x="241.70439"
           y="341.88071" /></flowRegion><flowPara
         id="flowPara4777" /></flowRoot>    <text
       xml:space="preserve"
       style="font-style:normal;font-variant:normal;font-weight:normal;font-stretch:normal;font-size:3.52777767px;line-height:1.25;font-family:'8514oem';-inkscape-font-specification:'8514oem';letter-spacing:0px;word-spacing:0px;fill:#000000;fill-opacity:1;stroke:none;stroke-width:0.26458332"
       x="83.548615"
       y="183.6777"
       id="text4798"><tspan
         sodipodi:role="line"
         id="tspan4796"
         x="83.548615"
         y="186.79897"
         style="stroke-width:0.26458332" /><tspan
         sodipodi:role="line"
         x="83.548615"
         y="191.20868"
         style="stroke-width:0.26458332"
         id="tspan4800" /></text>
    <g
       transform="translate(0.52916667,45.678273)"
       id="g4891-2">
      <text
         xml:space="preserve"
         style="font-style:normal;font-variant:normal;font-weight:normal;font-stretch:normal;font-size:3.52777767px;line-height:1.25;font-family:'8514oem';-inkscape-font-specification:'8514oem';letter-spacing:0px;word-spacing:0px;fill:#000000;fill-opacity:1;stroke:none;stroke-width:0.26458332"
         x="193.50671"
         y="57.95438"
         id="text4678"><tspan
           sodipodi:role="line"
           id="tspan4676"
           x="193.50671"
           y="61.075638"
           style="stroke-width:0.26458332" /><tspan
           sodipodi:role="line"
           x="193.50671"
           y="65.485359"
           style="stroke-width:0.26458332"
           id="tspan4680" /></text>
      <g
         id="g4593"
         transform="translate(-79.545422,-9.246967)">
        <text
           xml:space="preserve"
           style="font-style:normal;font-variant:normal;font-weight:normal;font-stretch:normal;font-size:3.52777767px;line-height:1.25;font-family:'8514oem';-inkscape-font-specification:'8514oem';letter-spacing:0px;word-spacing:0px;fill:#000000;fill-opacity:1;stroke:none;stroke-width:0.26458332"
           x="136.86583"
           y="184.50323"
           id="text4607"><tspan
             sodipodi:role="line"
             id="tspan4605"
             x="136.86583"
             y="187.6245"
             style="stroke-width:0.26458332" /></text>
      </g>
      <text
         xml:space="preserve"
         style="font-style:normal;font-variant:normal;font-weight:normal;font-stretch:normal;font-size:3.57479906px;line-height:1.25;font-family:'8514oem';-inkscape-font-specification:'8514oem';letter-spacing:0px;word-spacing:0px;fill:#ff0000;fill-opacity:1;stroke:none;stroke-width:0.26458332"
         x="6.9229107"
         y="95.810066"
         id="text4646"
         transform="scale(0.97797579,1.0225202)"><tspan
           sodipodi:role="line"
           id="tspan4644"
           x="6.9229107"
           y="95.810066"
           style="font-size:4.41168118px;line-height:10.25;fill:#808080;stroke-width:0.26458332">Parameters   </tspan></text>
      <text
         xml:space="preserve"
         style="font-style:normal;font-variant:normal;font-weight:normal;font-stretch:normal;font-size:3.52777767px;line-height:1.25;font-family:'8514oem';-inkscape-font-specification:'8514oem';letter-spacing:0px;word-spacing:0px;fill:#000000;fill-opacity:1;stroke:none;stroke-width:0.26458332"
         x="124.10751"
         y="125.05308"
         id="text4616-5"><tspan
           sodipodi:role="line"
           id="tspan4614-4"
           x="124.10751"
           y="128.17433"
           style="font-size:4.93888903px;stroke-width:0.26458332" /></text>
      <flowRoot
         xml:space="preserve"
         id="flowRoot4844"
         style="font-style:normal;font-variant:normal;font-weight:normal;font-stretch:normal;font-size:13.33333302px;line-height:1.25;font-family:'8514oem';-inkscape-font-specification:'8514oem';letter-spacing:0px;word-spacing:0px;fill:#000000;fill-opacity:1;stroke:none"
         transform="translate(0,-4.7625)"><flowRegion
           id="flowRegion4846"><rect
             id="rect4848"
             width="154.23729"
             height="301.69492"
             x="-481.35593"
             y="381.8364" /></flowRegion><flowPara
           id="flowPara4850" /></flowRoot>      <flowRoot
         xml:space="preserve"
         id="flowRoot4922"
         style="font-style:normal;font-variant:normal;font-weight:normal;font-stretch:normal;font-size:13.33333302px;line-height:1.25;font-family:'8514oem';-inkscape-font-specification:'8514oem';letter-spacing:0px;word-spacing:0px;fill:#000000;fill-opacity:1;stroke:none"
         transform="translate(0,-4.7625)"><flowRegion
           id="flowRegion4924"><rect
             id="rect4926"
             width="34.677971"
             height="20.779659"
             x="2.6101654"
             y="67.83638" /></flowRegion><flowPara
           id="flowPara4928" /></flowRoot>      <flowRoot
         xml:space="preserve"
         id="flowRoot4783"
         style="font-style:normal;font-variant:normal;font-weight:normal;font-stretch:normal;font-size:13.33333302px;line-height:1.25;font-family:'8514oem';-inkscape-font-specification:'8514oem';letter-spacing:0px;word-spacing:0px;fill:#000000;fill-opacity:1;stroke:none"
         transform="translate(0,-4.7625)"><flowRegion
           id="flowRegion4785"><rect
             id="rect4787"
             width="761.85345"
             height="416.01288"
             x="-83.887367"
             y="119.17786" /></flowRegion><flowPara
           id="flowPara4789" /></flowRoot>      <flowRoot
         xml:space="preserve"
         id="flowRoot4685"
         style="font-style:normal;font-variant:normal;font-weight:normal;font-stretch:normal;font-size:21.33333397px;line-height:1.25;font-family:'8514oem';-inkscape-font-specification:'8514oem';letter-spacing:0px;word-spacing:0px;fill:#000000;fill-opacity:1;stroke:none"
         transform="matrix(0.26458333,0,0,0.26458333,-0.52916667,-253.44077)"><flowRegion
           id="flowRegion4687"><rect
             id="rect4689"
             width="377.08334"
             height="356.25"
             x="-6.25"
             y="725.18048" /></flowRegion><flowPara
           id="flowPara4691" /></flowRoot>      <rect
         style="opacity:1;fill:none;fill-opacity:1;stroke:#000000;stroke-width:0.09999993;stroke-linecap:round;stroke-linejoin:bevel;stroke-miterlimit:4;stroke-dasharray:none;stroke-dashoffset:0;stroke-opacity:1;paint-order:normal"
         id="rect4695"
         width="39.18259"
         height="60.075935"
         x="5.2225709"
         y="109.31192"
         rx="0"
         ry="0" />
      <path
         style="fill:none;stroke:#008000;stroke-width:0.09999996;stroke-linecap:butt;stroke-linejoin:miter;stroke-miterlimit:4;stroke-dasharray:none;stroke-opacity:1"
         d="m 5.2604901,137.14821 c 39.1067859,0 39.2238789,0 39.2238789,0"
         id="path4764-1-7-8-7-6"
         inkscape:connector-curvature="0" />
      <text
         xml:space="preserve"
         style="font-style:normal;font-variant:normal;font-weight:normal;font-stretch:normal;font-size:3.52777767px;line-height:1.25;font-family:'8514oem';-inkscape-font-specification:'8514oem';letter-spacing:0px;word-spacing:0px;fill:#000000;fill-opacity:1;stroke:none;stroke-width:0.26458332"
         x="545.75757"
         y="42.674419"
         id="text4975"><tspan
           sodipodi:role="line"
           id="tspan4973"
           x="545.75757"
           y="45.795677"
           style="stroke-width:0.26458332" /></text>
      <path
         style="fill:none;stroke:#008000;stroke-width:0.09999999;stroke-linecap:butt;stroke-linejoin:miter;stroke-miterlimit:4;stroke-dasharray:none;stroke-opacity:1"
         d="m 5.419522,122.99034 c 38.8078,0 38.924,0 38.924,0"
         id="path4764-1-7-8-7-6-9"
         inkscape:connector-curvature="0" />
      <path
         style="fill:#ff0000;stroke-width:0.99999976"
         d="m 12.543806,146.11391 c -1.190809,-1.05251 -1.950659,-1.92395 -2.135407,-2.44898 -0.02713,-0.0772 -0.03172,-0.11361 -0.03131,-0.25077 3.73e-4,-0.18181 0.02568,-0.28523 0.109158,-0.44947 0.06054,-0.11913 0.214379,-0.31407 0.325441,-0.41247 0.697763,-0.61817 1.969342,-0.8271 3.04062,-0.49959 0.824561,0.25209 1.368157,0.79635 1.369573,1.37124 3.73e-4,0.21271 -0.10069,0.44531 -0.34299,0.78808 -0.327197,0.46289 -0.983468,1.15168 -1.714368,1.79935 -0.331847,0.29405 -0.347846,0.30737 -0.368545,0.3074 -0.01122,2e-5 -0.124721,-0.0921 -0.252162,-0.20479 z m 0.407833,-0.078 c 1.072258,-0.95013 1.824889,-1.79292 2.044105,-2.28897 0.100173,-0.22673 0.100691,-0.44458 0.0011,-0.67637 -0.225988,-0.52774 -0.914794,-0.94125 -1.744584,-1.04733 -0.144472,-0.0184 -0.364926,-0.0325 -0.378272,-0.0239 -0.0052,0.004 -0.0094,0.10992 -0.0073,0.236 l 0.003,0.22922 0.09538,0.006 c 0.596519,0.0416 1.109484,0.31954 1.279668,0.69315 0.119484,0.26232 0.04806,0.55643 -0.190342,0.78444 -0.544158,0.52031 -1.676437,0.58542 -2.351741,0.13526 -0.274523,-0.183 -0.413234,-0.40702 -0.412172,-0.66564 0.0011,-0.25779 0.156768,-0.49214 0.449548,-0.6766 0.233956,-0.1474 0.531186,-0.23958 0.863835,-0.26791 l 0.115854,-0.01 0.003,-0.22897 c 0.0022,-0.12594 -0.0011,-0.23202 -0.0073,-0.23575 -0.01331,-0.008 -0.233811,0.006 -0.378279,0.0239 -0.668723,0.0855 -1.269366,0.3795 -1.57472,0.77083 -0.156827,0.20097 -0.227987,0.37129 -0.241205,0.57726 -0.0083,0.13073 0.0052,0.21234 0.0596,0.34421 0.185072,0.45321 0.832873,1.20515 1.79473,2.08321 0.305123,0.27857 0.406313,0.36529 0.422196,0.36192 0.0073,-0.002 0.07614,-0.0578 0.15171,-0.12476 z m 0.06771,-1.75908 c 0.710846,-0.0789 1.209832,-0.49803 1.125868,-0.94574 -0.05638,-0.30077 -0.338712,-0.55211 -0.768838,-0.68453 -0.213038,-0.0656 -0.304076,-0.0778 -0.580439,-0.0778 -0.20766,0 -0.252452,0.002 -0.34614,0.0198 -0.549734,0.10092 -0.936496,0.38722 -1.003139,0.74258 -0.10508,0.56031 0.697338,1.04286 1.572688,0.94574 z"
         id="path4859-6-8-6"
         inkscape:connector-curvature="0" />
      <text
         xml:space="preserve"
         style="font-style:normal;font-variant:normal;font-weight:normal;font-stretch:normal;font-size:1.50921595px;line-height:1.25;font-family:'8514oem';-inkscape-font-specification:'8514oem';letter-spacing:0px;word-spacing:0px;fill:#008000;fill-opacity:1;stroke:none;stroke-width:0.26458332"
         x="21.633724"
         y="126.99982"
         id="text4638-9-27"
         transform="scale(0.87113102,1.1479329)"><tspan
           sodipodi:role="line"
           x="21.633724"
           y="126.99982"
           style="font-size:3.0184319px;fill:#008000;stroke-width:0.26458332"
           id="tspan5140">Distance</tspan></text>
      <text
         xml:space="preserve"
         style="font-style:normal;font-variant:normal;font-weight:normal;font-stretch:normal;font-size:1.43422878px;line-height:1.25;font-family:'8514oem';-inkscape-font-specification:'8514oem';letter-spacing:0px;word-spacing:0px;fill:#008000;fill-opacity:1;stroke:none;stroke-width:0.26458332"
         x="21.032932"
         y="121.06732"
         id="text4638-9-5-1"
         transform="scale(0.91667725,1.0908965)"><tspan
           sodipodi:role="line"
           id="tspan4636-7-7-7"
           x="21.032932"
           y="121.06732"
           style="font-size:2.86845756px;fill:#008000;stroke-width:0.26458332">Account</tspan></text>
      <text
         xml:space="preserve"
         style="font-style:normal;font-variant:normal;font-weight:normal;font-stretch:normal;font-size:1.34741008px;line-height:1.25;font-family:'8514oem';-inkscape-font-specification:'8514oem';letter-spacing:0px;word-spacing:0px;fill:#008000;fill-opacity:1;stroke:none;stroke-width:0.26458332"
         x="19.581123"
         y="115.32919"
         id="text4638-9-4-3"
         transform="scale(0.97574218,1.0248609)"><tspan
           sodipodi:role="line"
           id="tspan4636-7-4-2"
           x="19.581123"
           y="115.32919"
           style="font-size:2.69482017px;fill:#008000;stroke-width:0.26458332">APP</tspan></text>
      <g
         transform="matrix(0.80392191,0,0,0.66563027,8.7756949,-64.151037)"
         id="layer1-8-7"
         inkscape:label="Calque 1"
         style="stroke-width:1.36702526">
        <g
           style="stroke-width:7.99433708"
           transform="matrix(0.19148451,0,0,0.15270543,9.9104468,263.91176)"
           id="g4998-9-4-9">
          <path
             inkscape:transform-center-y="-3.2224263"
             inkscape:transform-center-x="-0.0020659343"
             d="m 52.418113,208.92037 -11.169007,0.004 -11.169007,0.004 5.581404,-9.67443 5.581404,-9.67443 5.587603,9.67085 z"
             inkscape:randomized="0"
             inkscape:rounded="0"
             inkscape:flatsided="false"
             sodipodi:arg2="1.5704759"
             sodipodi:arg1="0.52327832"
             sodipodi:r2="6.4484296"
             sodipodi:r1="12.896859"
             sodipodi:cy="202.47552"
             sodipodi:cx="41.24704"
             sodipodi:sides="3"
             id="path4730-6-6-0"
             style="opacity:1;fill:#ffffff;fill-opacity:1;stroke:#ff0000;stroke-width:2.0437026;stroke-linecap:round;stroke-linejoin:round;stroke-miterlimit:4;stroke-dasharray:none;stroke-dashoffset:0;stroke-opacity:1;paint-order:normal"
             sodipodi:type="star"
             transform="matrix(1.3665218,0,0,1.4917595,-81.498578,-109.16465)" />
          <ellipse
             ry="9.934638"
             rx="12.32984"
             cy="174.29277"
             cx="-24.546463"
             id="path4728-4-8-8"
             style="opacity:1;fill:#ffffff;fill-opacity:1;stroke:#008000;stroke-width:3.71736693;stroke-linecap:round;stroke-linejoin:round;stroke-miterlimit:4;stroke-dasharray:none;stroke-dashoffset:0;stroke-opacity:1;paint-order:normal" />
        </g>
      </g>
      <path
         style="fill:#ff2a2a;stroke-width:1"
         d="m 11.68082,118.59603 c -0.352464,-0.0181 -0.56277,-0.0841 -0.770266,-0.24189 -0.161608,-0.12287 -0.236778,-0.2386 -0.277701,-0.42755 -0.01819,-0.084 -0.01964,-0.16396 -0.01964,-1.0874 0,-1.10534 -7.25e-4,-1.09016 0.07164,-1.24894 0.05321,-0.1165 0.107148,-0.17735 0.248032,-0.27977 0.140883,-0.10242 0.224568,-0.14164 0.384831,-0.18031 0.21839,-0.0528 0.197509,-0.0521 1.717906,-0.0521 1.520392,0 1.499514,-6.2e-4 1.717904,0.0521 0.160262,0.0387 0.243948,0.0779 0.384831,0.18031 0.140887,0.10242 0.194821,0.16327 0.248036,0.27977 0.07251,0.15878 0.07164,0.1436 0.07164,1.24894 0,1.10534 7.24e-4,1.09016 -0.07164,1.24893 -0.05321,0.1165 -0.107149,0.17735 -0.248036,0.27978 -0.140921,0.10244 -0.224662,0.14168 -0.384831,0.18028 -0.214868,0.0518 -0.187159,0.0509 -1.636616,0.0527 -0.721304,6.2e-4 -1.36755,-0.001 -1.436105,-0.005 z m 1.62578,-0.62614 c 0.328628,-0.0427 0.598025,-0.14612 0.840683,-0.32253 0.311805,-0.22669 0.464234,-0.49205 0.464234,-0.80817 0,-0.31613 -0.152429,-0.5815 -0.464234,-0.80818 -0.310575,-0.22579 -0.679302,-0.33786 -1.111646,-0.33786 -0.432344,0 -0.801073,0.11207 -1.111648,0.33786 -0.240444,0.17481 -0.374176,0.35663 -0.440688,0.59918 -0.03447,0.12564 -0.0322,0.3105 0.0054,0.43751 0.09597,0.32451 0.361864,0.5933 0.755747,0.76398 0.305367,0.13232 0.706383,0.1845 1.062175,0.13821 z m -0.476894,-0.0821 c -0.254457,-0.0268 -0.503462,-0.1078 -0.719426,-0.23422 -0.236651,-0.13854 -0.407449,-0.33591 -0.489934,-0.56615 -0.02929,-0.0817 -0.03105,-0.0959 -0.03108,-0.2482 -4.1e-5,-0.15128 0.0019,-0.16679 0.02992,-0.24427 0.0369,-0.10193 0.06078,-0.14923 0.115608,-0.22912 0.139438,-0.20314 0.370297,-0.37098 0.649732,-0.47236 0.110097,-0.04 0.175181,-0.0573 0.315137,-0.084 0.106366,-0.0203 0.128328,-0.0217 0.335995,-0.0217 0.207664,0 0.22963,0.002 0.335992,0.0217 0.139955,0.0267 0.205044,0.044 0.315137,0.084 0.279433,0.10138 0.510296,0.26922 0.649734,0.47236 0.05478,0.0798 0.07865,0.12711 0.115664,0.22912 0.02817,0.0777 0.03,0.0926 0.02974,0.24427 -2.5e-4,0.15168 -0.0022,0.16682 -0.03116,0.2482 -0.08181,0.22967 -0.25297,0.42753 -0.489754,0.56615 -0.182057,0.10658 -0.366223,0.17402 -0.583942,0.21385 -0.102445,0.0188 -0.145158,0.0221 -0.303479,0.0243 -0.101343,10e-4 -0.211081,-4e-4 -0.243866,-0.004 z m 1.063005,-0.54366 c 0.04055,-0.0295 0.04133,-0.0621 0.0026,-0.11024 -0.02198,-0.0274 -0.162811,-0.18392 -0.184307,-0.20487 -0.0034,-0.003 -0.109467,0.0359 -0.125626,0.0463 -0.009,0.005 0.06998,0.15359 0.122461,0.22919 0.03645,0.0525 0.05358,0.0621 0.111659,0.0624 0.03164,2.1e-4 0.04898,-0.005 0.07316,-0.0228 z m -1.582045,-0.0753 0.125532,-0.0904 -0.05524,-0.0207 c -0.03037,-0.0114 -0.07333,-0.031 -0.09543,-0.0436 l -0.04019,-0.023 -0.01073,0.0297 c -0.0059,0.0163 -0.01658,0.0545 -0.0237,0.0848 -0.0071,0.0303 -0.02195,0.0742 -0.03291,0.0974 -0.01867,0.0395 -0.01882,0.0562 -3.72e-4,0.0562 0.0042,0 0.06414,-0.0407 0.13318,-0.0904 z m 0.216716,-0.17946 c 0.03134,-0.0401 0.127296,-0.16087 0.213239,-0.26843 0.08595,-0.10756 0.154561,-0.19669 0.152481,-0.19809 -0.0044,-0.003 -0.168666,-0.0734 -0.195127,-0.0837 -0.01502,-0.005 -0.0316,0.01 -0.09859,0.0933 -0.06655,0.0829 -0.245097,0.30964 -0.329251,0.41805 l -0.02031,0.0262 0.03511,0.0217 c 0.0425,0.0262 0.140969,0.0639 0.166762,0.0639 0.01222,0 0.03836,-0.0252 0.07565,-0.0729 z m 1.113369,-0.0564 c 0.05891,-0.0221 0.06249,-0.0317 0.02978,-0.0803 -0.01617,-0.0241 -0.03886,-0.0597 -0.05037,-0.0792 -0.01152,-0.0195 -0.02459,-0.0343 -0.02907,-0.0328 -0.06162,0.0204 -0.165287,0.0634 -0.165287,0.0686 0,0.004 0.0098,0.0158 0.02169,0.0268 0.01193,0.0111 0.02169,0.0219 0.02169,0.0242 0,0.007 0.0696,0.0875 0.08035,0.0931 0.01047,0.005 0.04033,-0.001 0.09122,-0.0203 z m 0.308324,-0.0513 c 0.0046,-0.003 0.0071,-0.0604 0.0054,-0.12722 l -0.003,-0.12153 -0.19879,-0.002 c -0.110734,-10e-4 -0.19715,6.2e-4 -0.195093,0.005 0.0019,0.004 0.03998,0.0622 0.08431,0.12988 l 0.08061,0.12297 0.07655,0.003 c 0.0827,0.003 0.136624,-3.9e-4 0.149995,-0.009 z m -1.611543,-0.05 c 0.02438,-0.0313 0.0695,-0.0883 0.100254,-0.12653 0.03074,-0.0382 0.05592,-0.0711 0.05592,-0.0731 0,-0.002 -0.08413,-0.003 -0.186965,-0.001 l -0.186965,0.002 -0.003,0.11784 c -0.0015,0.0648 -7.25e-4,0.12245 0.0022,0.12804 0.0037,0.007 0.03056,0.0101 0.08972,0.01 l 0.08434,-2.1e-4 0.04433,-0.057 z m 1.101015,0.0317 c -0.02474,-0.0294 -0.06852,-0.0857 -0.134634,-0.17335 l -0.04608,-0.0611 -0.20756,-1e-5 h -0.207559 l -0.09863,0.12554 c -0.05425,0.0691 -0.09863,0.12757 -0.09863,0.13001 0,0.003 0.183297,0.005 0.407325,0.005 h 0.40733 z m 0.07802,-0.10915 c 0.03466,-0.0136 0.061,-0.0294 0.061,-0.0365 0,-0.0255 -0.322482,-0.43917 -0.40093,-0.51424 -0.01584,-0.0152 -0.05284,-0.0559 -0.0822,-0.0906 -0.09191,-0.10847 -0.139323,-0.1364 -0.16721,-0.0985 -0.0092,0.0125 -0.0056,0.0263 0.0167,0.065 0.01558,0.0271 0.03768,0.0677 0.04912,0.0902 0.02832,0.0559 0.04591,0.0841 0.216333,0.34636 0.06728,0.10354 0.165375,0.23449 0.192447,0.25688 0.01946,0.0161 0.03157,0.0142 0.114747,-0.0186 z m -0.593956,-0.25472 c 0.0085,-0.006 0.01547,-0.0135 0.01547,-0.0161 0,-0.003 0.01733,-0.0246 0.03851,-0.0486 0.02116,-0.0241 0.03701,-0.0494 0.03518,-0.0564 -0.0019,-0.007 -0.04876,-0.0316 -0.104279,-0.0549 -0.08106,-0.034 -0.104003,-0.0404 -0.116473,-0.0329 -0.0085,0.005 -0.01554,0.0143 -0.01554,0.0202 0,0.006 -0.0049,0.0108 -0.01085,0.0108 -0.006,0 -0.01085,0.004 -0.01085,0.008 0,0.005 -0.01256,0.0204 -0.02791,0.035 -0.04502,0.0429 -0.03458,0.057 0.0767,0.10391 0.05365,0.0225 0.09912,0.0412 0.10103,0.0414 0.0019,2.1e-4 0.01047,-0.005 0.01897,-0.0109 z m 0.113298,-0.17443 c 0.01807,-0.0345 0.01192,-0.0519 -0.02814,-0.0793 -0.04961,-0.034 -0.110584,-0.0369 -0.15146,-0.007 -0.02639,0.0191 -0.03574,0.0437 -0.0167,0.0437 0.0054,0 0.04324,0.014 0.084,0.0311 0.04075,0.0171 0.08032,0.0313 0.08791,0.0315 0.0076,2e-4 0.01856,-0.009 0.02438,-0.0198 z"
         id="path4642-8"
         inkscape:connector-curvature="0" />
      <g
         id="g4891-2-5"
         transform="matrix(0.89456987,0,0,0.65109548,-331.00342,111.02525)"
         style="stroke-width:1.3102994">
        <g
           id="g5679"
           style="stroke-width:1.3102994">
          <text
             xml:space="preserve"
             style="font-style:normal;font-variant:normal;font-weight:normal;font-stretch:normal;font-size:3.52777767px;line-height:1.25;font-family:'8514oem';-inkscape-font-specification:'8514oem';letter-spacing:0px;word-spacing:0px;fill:#000000;fill-opacity:1;stroke:none;stroke-width:0.34668335"
             x="193.50671"
             y="62.716881"
             id="text4678-9"><tspan
               sodipodi:role="line"
               id="tspan4676-0"
               x="193.50671"
               y="65.838135"
               style="stroke-width:0.34668335" /><tspan
               sodipodi:role="line"
               x="193.50671"
               y="70.247856"
               style="stroke-width:0.34668335"
               id="tspan4680-9" /></text>
          <g
             id="g4593-1"
             transform="translate(-79.545422,-4.484467)"
             style="stroke-width:1.3102994">
            <text
               xml:space="preserve"
               style="font-style:normal;font-variant:normal;font-weight:normal;font-stretch:normal;font-size:3.52777767px;line-height:1.25;font-family:'8514oem';-inkscape-font-specification:'8514oem';letter-spacing:0px;word-spacing:0px;fill:#000000;fill-opacity:1;stroke:none;stroke-width:0.34668335"
               x="136.86583"
               y="184.50323"
               id="text4607-2"><tspan
                 sodipodi:role="line"
                 id="tspan4605-8"
                 x="136.86583"
                 y="187.6245"
                 style="stroke-width:0.34668335" /></text>
          </g>
          <text
             xml:space="preserve"
             style="font-style:normal;font-variant:normal;font-weight:normal;font-stretch:normal;font-size:3.52777767px;line-height:1.25;font-family:'8514oem';-inkscape-font-specification:'8514oem';letter-spacing:0px;word-spacing:0px;fill:#000000;fill-opacity:1;stroke:none;stroke-width:0.34668335"
             x="124.10751"
             y="129.81557"
             id="text4616-5-0"><tspan
               sodipodi:role="line"
               id="tspan4614-4-2"
               x="124.10751"
               y="132.93683"
               style="font-size:4.93888903px;stroke-width:0.34668335" /></text>
          <flowRoot
             xml:space="preserve"
             id="flowRoot4844-4"
             style="font-style:normal;font-variant:normal;font-weight:normal;font-stretch:normal;font-size:13.33333302px;line-height:1.25;font-family:'8514oem';-inkscape-font-specification:'8514oem';letter-spacing:0px;word-spacing:0px;fill:#000000;fill-opacity:1;stroke:none;stroke-width:1.3102994"><flowRegion
               id="flowRegion4846-0"
               style="stroke-width:1.3102994"><rect
                 id="rect4848-6"
                 width="154.23729"
                 height="301.69492"
                 x="-481.35593"
                 y="381.8364"
                 style="stroke-width:1.3102994" /></flowRegion><flowPara
               id="flowPara4850-7"
               style="stroke-width:1.3102994" /></flowRoot>          <flowRoot
             xml:space="preserve"
             id="flowRoot4922-4"
             style="font-style:normal;font-variant:normal;font-weight:normal;font-stretch:normal;font-size:13.33333302px;line-height:1.25;font-family:'8514oem';-inkscape-font-specification:'8514oem';letter-spacing:0px;word-spacing:0px;fill:#000000;fill-opacity:1;stroke:none;stroke-width:1.3102994"><flowRegion
               id="flowRegion4924-3"
               style="stroke-width:1.3102994"><rect
                 id="rect4926-9"
                 width="34.677971"
                 height="20.779659"
                 x="2.6101654"
                 y="67.83638"
                 style="stroke-width:1.3102994" /></flowRegion><flowPara
               id="flowPara4928-7"
               style="stroke-width:1.3102994" /></flowRoot>          <flowRoot
             xml:space="preserve"
             id="flowRoot4783-0"
             style="font-style:normal;font-variant:normal;font-weight:normal;font-stretch:normal;font-size:13.33333302px;line-height:1.25;font-family:'8514oem';-inkscape-font-specification:'8514oem';letter-spacing:0px;word-spacing:0px;fill:#000000;fill-opacity:1;stroke:none;stroke-width:1.3102994"><flowRegion
               id="flowRegion4785-6"
               style="stroke-width:1.3102994"><rect
                 id="rect4787-5"
                 width="761.85345"
                 height="416.01288"
                 x="-83.887367"
                 y="119.17786"
                 style="stroke-width:1.3102994" /></flowRegion><flowPara
               id="flowPara4789-3"
               style="stroke-width:1.3102994" /></flowRoot>          <flowRoot
             xml:space="preserve"
             id="flowRoot4845"
             style="font-style:normal;font-variant:normal;font-weight:normal;font-stretch:normal;font-size:13.33333302px;line-height:1.25;font-family:'8514oem';-inkscape-font-specification:'8514oem';letter-spacing:0px;word-spacing:0px;fill:#000000;fill-opacity:1;stroke:none;stroke-width:1.3102994"><flowRegion
               id="flowRegion4847"
               style="stroke-width:1.3102994"><rect
                 id="rect4849"
                 width="354.38135"
                 height="169.48672"
                 x="83.887367"
                 y="-56.369179"
                 style="stroke-width:1.3102994" /></flowRegion><flowPara
               id="flowPara4851"
               style="stroke-width:1.3102994" /></flowRoot>          <text
             xml:space="preserve"
             style="font-style:normal;font-variant:normal;font-weight:normal;font-stretch:normal;font-size:3.52777767px;line-height:1.25;font-family:'8514oem';-inkscape-font-specification:'8514oem';letter-spacing:0px;word-spacing:0px;fill:#000000;fill-opacity:1;stroke:none;stroke-width:0.34668335"
             x="449.70309"
             y="25.61257"
             id="text5071"><tspan
               sodipodi:role="line"
               id="tspan5069"
               x="449.70309"
               y="25.61257"
               style="stroke-width:0.34668335">Disable Account</tspan></text>
          <text
             xml:space="preserve"
             style="font-style:normal;font-variant:normal;font-weight:normal;font-stretch:normal;font-size:3.52777767px;line-height:1.25;font-family:'8514oem';-inkscape-font-specification:'8514oem';letter-spacing:0px;word-spacing:0px;fill:#000000;fill-opacity:1;stroke:none;stroke-width:0.34668335"
             x="450.12106"
             y="34.516159"
             id="text5071-7"><tspan
               sodipodi:role="line"
               id="tspan5069-3"
               x="450.12106"
               y="34.516159"
               style="stroke-width:0.34668335">Delete Account</tspan></text>
          <flowRoot
             xml:space="preserve"
             id="flowRoot5109"
             style="font-style:normal;font-variant:normal;font-weight:normal;font-stretch:normal;font-size:13.33333302px;line-height:1.25;font-family:'8514oem';-inkscape-font-specification:'8514oem';letter-spacing:0px;word-spacing:0px;fill:#000000;fill-opacity:1;stroke:none;stroke-width:1.3102994"><flowRegion
               id="flowRegion5111"
               style="stroke-width:1.3102994"><rect
                 id="rect5113"
                 width="299.59775"
                 height="85.599358"
                 x="-68.479485"
                 y="613.54047"
                 style="stroke-width:1.3102994" /></flowRegion><flowPara
               id="flowPara5115"
               style="stroke-width:1.3102994" /></flowRoot>          <flowRoot
             xml:space="preserve"
             id="flowRoot4839"
             style="font-style:normal;font-variant:normal;font-weight:normal;font-stretch:normal;font-size:13.33333302px;line-height:1.25;font-family:'8514oem';-inkscape-font-specification:'8514oem';letter-spacing:0px;word-spacing:0px;fill:#000000;fill-opacity:1;stroke:none;stroke-width:1.3102994"><flowRegion
               id="flowRegion4841"
               style="stroke-width:1.3102994"><rect
                 id="rect4843"
                 width="598.30914"
                 height="291.74695"
                 x="-45.585461"
                 y="1919.7208"
                 style="stroke-width:1.3102994" /></flowRegion><flowPara
               id="flowPara4845"
               style="stroke-width:1.3102994" /></flowRoot>          <flowRoot
             xml:space="preserve"
             id="flowRoot4838"
             style="font-style:normal;font-variant:normal;font-weight:normal;font-stretch:normal;font-size:13.33333302px;line-height:1.25;font-family:'8514oem';-inkscape-font-specification:'8514oem';letter-spacing:0px;word-spacing:0px;fill:#000000;fill-opacity:1;stroke:none;stroke-width:1.3102994"><flowRegion
               id="flowRegion4840"
               style="stroke-width:1.3102994"><rect
                 id="rect4842"
                 width="857.22406"
                 height="2574.5879"
                 x="-91.845436"
                 y="1031.8138"
                 style="stroke-width:1.3102994" /></flowRegion><flowPara
               id="flowPara4844"
               style="stroke-width:1.3102994" /></flowRoot>        </g>
      </g>
      <g
         style="stroke-width:1.53136313"
         id="g161-4-9-1"
         transform="matrix(0.76983682,0,0,0.55391734,166.53253,691.32771)">
        <flowRoot
           transform="matrix(0.30745253,0,0,0.31100132,-141.92593,-1164.2698)"
           style="font-style:normal;font-variant:normal;font-weight:normal;font-stretch:normal;font-size:13.33333302px;line-height:1.25;font-family:'8514oem';-inkscape-font-specification:'8514oem';letter-spacing:0px;word-spacing:0px;fill:#000000;fill-opacity:1;stroke:none;stroke-width:1.53136313"
           id="flowRoot5005"
           xml:space="preserve"><flowRegion
             id="flowRegion5007"
             style="stroke-width:1.53136313"><rect
               y="942.242"
               x="101.00724"
               height="87.31134"
               width="344.10941"
               id="rect5009"
               style="stroke-width:1.53136313" /></flowRegion><flowPara
             id="flowPara5011"
             style="stroke-width:1.53136313" /></flowRoot>        <rect
           style="opacity:1;fill:#00ba00;fill-opacity:1;stroke:#00ba00;stroke-width:0.27717671;stroke-linecap:round;stroke-linejoin:bevel;stroke-miterlimit:4;stroke-dasharray:none;stroke-dashoffset:0;stroke-opacity:1;paint-order:normal"
           id="rect152-2-1-1-1"
           width="35.227421"
           height="10.839207"
           x="-122.54983"
           y="-897.37195"
           rx="81.804344"
           ry="0.90385336" />
        <text
           id="text365-5"
           y="-890.57629"
           x="-113.27704"
           style="font-style:normal;font-variant:normal;font-weight:normal;font-stretch:normal;font-size:3.52777743px;line-height:1.25;font-family:'8514oem';-inkscape-font-specification:'8514oem';letter-spacing:0px;word-spacing:0px;fill:#000000;fill-opacity:1;stroke:none;stroke-width:0.40517309"
           xml:space="preserve"><tspan
             style="font-size:4.93888903px;fill:#ffffff;stroke-width:0.40517309"
             y="-890.57629"
             x="-113.27704"
             id="tspan363-3"
             sodipodi:role="line">Miles</tspan></text>
        <rect
           style="opacity:1;fill:#ffffff;fill-opacity:1;stroke:#000000;stroke-width:0.27717671;stroke-linecap:round;stroke-linejoin:bevel;stroke-miterlimit:4;stroke-dasharray:none;stroke-dashoffset:0;stroke-opacity:1;paint-order:normal"
           id="rect152-2-1-1-9-0"
           width="35.227421"
           height="10.839207"
           x="-80.039803"
           y="-897.88"
           rx="81.804344"
           ry="0.90385336" />
        <text
           id="text384-52"
           y="-891.10547"
           x="-66.438789"
           style="font-style:normal;font-variant:normal;font-weight:normal;font-stretch:normal;font-size:3.52777743px;line-height:1.25;font-family:'8514oem';-inkscape-font-specification:'8514oem';letter-spacing:0px;word-spacing:0px;fill:#000000;fill-opacity:1;stroke:none;stroke-width:0.40517309"
           xml:space="preserve"><tspan
             style="font-size:4.93888903px;fill:#000000;stroke-width:0.40517309"
             y="-891.10547"
             x="-66.438789"
             id="tspan382-7"
             sodipodi:role="line">Km</tspan></text>
        <flowRoot
           style="font-style:normal;font-variant:normal;font-weight:normal;font-stretch:normal;font-size:13.33333302px;line-height:1.25;font-family:'8514oem';-inkscape-font-specification:'8514oem';letter-spacing:0px;word-spacing:0px;fill:#000000;fill-opacity:1;stroke:none;stroke-width:1.53136313"
           id="flowRoot4798"
           xml:space="preserve"><flowRegion
             id="flowRegion4800"
             style="stroke-width:1.53136313"><rect
               y="1922.0001"
               x="194.87784"
               height="72.936737"
               width="323.65677"
               id="rect4802"
               style="stroke-width:1.53136313" /></flowRegion><flowPara
             id="flowPara4804"
             style="stroke-width:1.53136313" /></flowRoot>      </g>
      <g
         transform="matrix(0.89456987,0,0,0.65109548,67.400658,339.92775)"
         id="g5788"
         style="stroke-width:1.3102994">
        <path
           style="fill:#ff0000;stroke-width:1.31029916"
           d="m 7.032286,-241.83414 c -1.7505007,-1.65115 -2.8674889,-3.01825 -3.1390702,-3.84188 -0.039883,-0.12118 -0.046621,-0.17822 -0.046019,-0.39339 5.478e-4,-0.28523 0.037746,-0.44748 0.1604627,-0.70513 0.088991,-0.18687 0.3151402,-0.4927 0.4784025,-0.64706 1.0257177,-0.96977 2.8949521,-1.29753 4.4697435,-0.78374 1.2121155,0.39547 2.0112085,1.24929 2.0132905,2.15115 5.48e-4,0.3337 -0.148016,0.69859 -0.504201,1.23631 -0.4809827,0.72616 -1.4457098,1.80672 -2.5201413,2.82275 -0.4878198,0.4613 -0.5113386,0.48221 -0.5417657,0.48225 -0.01649,2e-5 -0.1833405,-0.14455 -0.3706803,-0.32126 z m 0.5995192,-0.12228 c 1.5762327,-1.49052 2.6826088,-2.81265 3.0048608,-3.59083 0.147254,-0.3557 0.148016,-0.69747 0.0016,-1.0611 -0.332206,-0.82788 -1.344759,-1.47658 -2.5645608,-1.64299 -0.2123761,-0.0289 -0.5364461,-0.0509 -0.5560643,-0.0376 -0.00762,0.006 -0.013751,0.17244 -0.010683,0.37022 l 0.00438,0.35958 0.1402145,0.01 c 0.8768909,0.0653 1.6309566,0.50129 1.8811283,1.08739 0.1756434,0.41151 0.070644,0.87291 -0.2798045,1.2306 -0.79992,0.81623 -2.464382,0.9184 -3.4570868,0.2122 -0.4035508,-0.28707 -0.6074573,-0.63851 -0.605896,-1.04424 0.00164,-0.40441 0.2304495,-0.77206 0.660839,-1.06142 0.3439183,-0.23124 0.7808491,-0.37586 1.2698467,-0.42029 l 0.1703075,-0.0156 0.00438,-0.35919 c 0.00329,-0.19757 -0.00164,-0.36398 -0.010683,-0.36983 -0.019558,-0.0133 -0.3437047,0.009 -0.5560753,0.0375 -0.9830299,0.1341 -1.8659803,0.59534 -2.3148541,1.20923 -0.2305371,0.3153 -0.3351419,0.58247 -0.3545738,0.9056 -0.012217,0.20508 0.00761,0.33311 0.087611,0.53996 0.2720579,0.71099 1.2243322,1.89061 2.6382721,3.2681 0.4485341,0.43699 0.5972839,0.57303 0.6206329,0.56776 0.010683,-0.003 0.1119295,-0.0907 0.2230153,-0.19573 z m 0.099543,-2.75958 c 1.0449522,-0.12374 1.7784684,-0.78129 1.6550397,-1.48366 -0.082877,-0.47181 -0.4979115,-0.86613 -1.1302025,-1.07386 -0.3131677,-0.1029 -0.4469944,-0.12204 -0.8532516,-0.12204 -0.3052626,0 -0.3711077,0.004 -0.5088295,0.031 -0.8081151,0.15833 -1.3766593,0.60746 -1.4746243,1.16491 -0.1544693,0.879 1.0250932,1.63602 2.3118682,1.48367 z"
           id="path4859-6-8-6-3"
           inkscape:connector-curvature="0" />
        <text
           xml:space="preserve"
           style="font-style:normal;font-variant:normal;font-weight:normal;font-stretch:normal;font-size:2.29187441px;line-height:1.25;font-family:'8514oem';-inkscape-font-specification:'8514oem';letter-spacing:0px;word-spacing:0px;fill:#008000;fill-opacity:1;stroke:none;stroke-width:0.34668335"
           x="19.325195"
           y="-204.36293"
           id="text4638-9-27-0"
           transform="scale(0.84326709,1.1858639)"><tspan
             sodipodi:role="line"
             id="tspan4636-7-5-4"
             x="19.325195"
             y="-204.36293"
             style="font-size:4.58374882px;fill:#008000;stroke-width:0.34668335">Distance</tspan></text>
        <text
           xml:space="preserve"
           style="font-style:normal;font-variant:normal;font-weight:normal;font-stretch:normal;font-size:2.38781142px;line-height:1.25;font-family:'8514oem';-inkscape-font-specification:'8514oem';letter-spacing:0px;word-spacing:0px;fill:#008000;fill-opacity:1;stroke:none;stroke-width:0.34668335"
           x="22.585337"
           y="-216.01096"
           id="text4638-9-5-1-9"
           transform="scale(0.73464315,1.3612051)"><tspan
             sodipodi:role="line"
             id="tspan4636-7-7-7-8"
             x="22.585337"
             y="-216.01096"
             style="font-size:4.77562284px;fill:#008000;stroke-width:0.34668335">Account</tspan></text>
        <text
           xml:space="preserve"
           style="font-style:normal;font-variant:normal;font-weight:normal;font-stretch:normal;font-size:2.20638275px;line-height:1.25;font-family:'8514oem';-inkscape-font-specification:'8514oem';letter-spacing:0px;word-spacing:0px;fill:#008000;fill-opacity:1;stroke:none;stroke-width:0.34668335"
           x="18.856913"
           y="-349.42404"
           id="text4638-9-4-3-5"
           transform="scale(1.0130825,0.98708642)"><tspan
             sodipodi:role="line"
             id="tspan4636-7-4-2-9"
             x="18.856913"
             y="-349.42404"
             style="font-size:4.4127655px;fill:#008000;stroke-width:0.34668335">APP</tspan></text>
        <g
           transform="matrix(1.0726437,0,0,1.3827849,2.5761147,-701.67009)"
           id="layer1-8-7-5"
           inkscape:label="Calque 1"
           style="stroke-width:1.0758841">
          <g
             style="stroke-width:6.291749"
             transform="matrix(0.19148451,0,0,0.15270543,9.9104468,263.91176)"
             id="g4998-9-4-7">
            <path
               inkscape:transform-center-y="-3.2224263"
               inkscape:transform-center-x="-0.0020659343"
               d="m 52.418113,208.92037 -11.169007,0.004 -11.169007,0.004 5.581404,-9.67443 5.581404,-9.67443 5.587603,9.67085 z"
               inkscape:randomized="0"
               inkscape:rounded="0"
               inkscape:flatsided="false"
               sodipodi:arg2="1.5704759"
               sodipodi:arg1="0.52327832"
               sodipodi:r2="6.4484296"
               sodipodi:r1="12.896859"
               sodipodi:cy="202.47552"
               sodipodi:cx="41.24704"
               sodipodi:sides="3"
               id="path4730-6-6-0-7"
               style="opacity:1;fill:#ffffff;fill-opacity:1;stroke:#ff0000;stroke-width:1.60844648;stroke-linecap:round;stroke-linejoin:round;stroke-miterlimit:4;stroke-dasharray:none;stroke-dashoffset:0;stroke-opacity:1;paint-order:normal"
               sodipodi:type="star"
               transform="matrix(1.3665218,0,0,1.4917595,-81.498578,-109.16465)" />
            <ellipse
               ry="9.934638"
               rx="12.32984"
               cy="174.29277"
               cx="-24.546463"
               id="path4728-4-8-8-6"
               style="opacity:1;fill:#ffffff;fill-opacity:1;stroke:#008000;stroke-width:2.92566323;stroke-linecap:round;stroke-linejoin:round;stroke-miterlimit:4;stroke-dasharray:none;stroke-dashoffset:0;stroke-opacity:1;paint-order:normal" />
          </g>
        </g>
        <path
           style="fill:#ff2a2a;stroke-width:1.31029952"
           d="m 5.8087988,-344.28138 c -0.5992464,-0.0285 -0.9568009,-0.13267 -1.3095779,-0.38148 -0.2747602,-0.19379 -0.4025601,-0.37632 -0.4721372,-0.67431 -0.03092,-0.1324 -0.033392,-0.25859 -0.033392,-1.71499 0,-1.74328 -0.00127,-1.71934 0.1217996,-1.96974 0.090467,-0.18376 0.1821703,-0.27971 0.4216952,-0.44125 0.239525,-0.16154 0.3818029,-0.22338 0.6542757,-0.28439 0.3712976,-0.0831 0.3357962,-0.0821 2.9207176,-0.0821 2.5849172,0 2.5494222,-0.001 2.9207192,0.0821 0.272467,0.061 0.414751,0.12285 0.654276,0.28439 0.239525,0.16154 0.331228,0.25749 0.421695,0.44125 0.123276,0.2504 0.1218,0.22646 0.1218,1.96974 0,1.74328 0.0013,1.71934 -0.1218,1.96975 -0.09047,0.18375 -0.18217,0.27971 -0.421695,0.44125 -0.239588,0.16158 -0.381961,0.22345 -0.654276,0.28433 -0.36531,0.0817 -0.3182,0.0803 -2.7825154,0.083 -1.2263335,10e-4 -2.3250575,-0.002 -2.4416107,-0.008 z m 2.7640882,-0.98749 c 0.5587211,-0.0674 1.0167414,-0.23044 1.4293,-0.50867 0.530113,-0.35752 0.789274,-0.77604 0.789274,-1.27462 0,-0.49858 -0.259161,-0.9171 -0.789274,-1.27461 -0.5280283,-0.3561 -1.1549263,-0.53284 -1.8899814,-0.53284 -0.7350548,0 -1.3619521,0.17674 -1.8899803,0.53284 -0.4087948,0.2757 -0.6361607,0.56246 -0.7492417,0.94499 -0.058609,0.19816 -0.054744,0.48971 0.00912,0.69002 0.1631618,0.5118 0.6152261,0.93572 1.2848923,1.20491 0.5191703,0.20869 1.2009636,0.29099 1.8058681,0.21798 z m -0.8107969,-0.12953 c -0.4326187,-0.0422 -0.8559676,-0.17001 -1.2231404,-0.36941 -0.4023446,-0.21849 -0.6927297,-0.52977 -0.8329674,-0.89288 -0.049802,-0.1289 -0.05278,-0.15125 -0.052843,-0.39147 -6.97e-5,-0.23858 0.00317,-0.26305 0.050879,-0.38525 0.062728,-0.16075 0.103336,-0.23534 0.1965532,-0.36133 0.2370666,-0.3204 0.6295648,-0.5851 1.1046483,-0.74498 0.1871821,-0.063 0.2978364,-0.0903 0.5357837,-0.13241 0.1808396,-0.032 0.2181785,-0.0342 0.5712467,-0.0342 0.3530621,0 0.3904073,0.002 0.5712406,0.0342 0.2379473,0.0421 0.3486085,0.0694 0.5357843,0.13241 0.4750835,0.15988 0.8675879,0.42458 1.1046549,0.74498 0.09313,0.12588 0.133717,0.20045 0.196641,0.36133 0.0479,0.12253 0.05101,0.14603 0.05056,0.38525 -4.18e-4,0.23922 -0.0038,0.26311 -0.05297,0.39147 -0.139085,0.36221 -0.430091,0.67426 -0.8326633,0.89288 -0.3095266,0.16809 -0.6226394,0.27447 -0.9927971,0.33729 -0.1741741,0.0296 -0.2467925,0.0349 -0.5159643,0.0382 -0.1722985,0.002 -0.3588724,-6.1e-4 -0.414611,-0.006 z m 1.8072817,-0.85744 c 0.068937,-0.0465 0.070274,-0.0979 0.00444,-0.17385 -0.037383,-0.0432 -0.2768068,-0.29007 -0.3133536,-0.32311 -0.0057,-0.005 -0.1861114,0.0567 -0.2135848,0.073 -0.015333,0.009 0.1189736,0.24224 0.2082054,0.36146 0.061967,0.0828 0.091088,0.0979 0.1898369,0.0984 0.053794,3.3e-4 0.083276,-0.008 0.1243847,-0.0359 z m -2.6897344,-0.11871 0.2134264,-0.14261 -0.093921,-0.0325 c -0.05164,-0.0179 -0.1246698,-0.0489 -0.1622495,-0.0688 l -0.068323,-0.0363 -0.018248,0.0468 c -0.010074,0.0257 -0.028196,0.0859 -0.040298,0.13377 -0.012102,0.0478 -0.03732,0.117 -0.055948,0.15369 -0.031744,0.0623 -0.031998,0.0886 -6.336e-4,0.0886 0.00716,0 0.1090449,-0.0642 0.2264281,-0.14261 z m 0.3684526,-0.28304 c 0.053287,-0.0632 0.2164234,-0.25374 0.3625411,-0.42337 0.1461239,-0.16963 0.2627782,-0.31021 0.2592427,-0.3124 -0.00754,-0.005 -0.2867606,-0.11583 -0.3317471,-0.13206 -0.025535,-0.009 -0.053731,0.0155 -0.1676162,0.14721 -0.113138,0.1308 -0.4167023,0.48835 -0.5597786,0.65933 l -0.034532,0.0412 0.059686,0.0341 c 0.072251,0.0413 0.2396707,0.10088 0.2835231,0.10088 0.020783,0 0.065218,-0.0397 0.1286235,-0.11495 z m 1.892902,-0.089 c 0.1001616,-0.0349 0.1062443,-0.0501 0.050626,-0.1267 -0.027499,-0.0379 -0.066067,-0.0941 -0.085639,-0.12494 -0.019579,-0.0308 -0.041819,-0.0541 -0.049422,-0.0517 -0.1047617,0.0322 -0.2810146,0.10001 -0.2810146,0.10815 0,0.006 0.016601,0.0248 0.036876,0.0422 0.020276,0.0174 0.036876,0.0345 0.036876,0.0382 0,0.0108 0.118328,0.13803 0.1366078,0.1469 0.017804,0.009 0.06857,-0.002 0.1550896,-0.032 z m 0.5242075,-0.081 c 0.00786,-0.005 0.012039,-0.0952 0.00919,-0.20064 l -0.00507,-0.19166 -0.3379759,-0.003 c -0.1882656,-0.002 -0.3351879,0.001 -0.3316903,0.007 0.00317,0.006 0.067961,0.0982 0.1433424,0.20484 l 0.1370506,0.19395 0.1301442,0.004 c 0.1405989,0.005 0.2322828,-6.1e-4 0.2550168,-0.0149 z m -2.7398849,-0.0788 c 0.041438,-0.0494 0.1181563,-0.13921 0.1704484,-0.19955 0.052273,-0.0603 0.09508,-0.11221 0.09508,-0.11525 0,-0.003 -0.1430383,-0.004 -0.3178713,-0.002 l -0.3178713,0.003 -0.00507,0.18587 c -0.00253,0.10223 -0.00127,0.1931 0.0038,0.20194 0.0064,0.0113 0.051956,0.016 0.1525361,0.0158 l 0.1433931,-3.2e-4 0.075375,-0.0898 z m 1.8719033,0.0499 c -0.042072,-0.0463 -0.1164898,-0.13523 -0.2288992,-0.27339 l -0.078353,-0.0963 -0.3528847,-10e-6 -0.3528845,-1e-5 -0.1676858,0.19801 c -0.092229,0.10889 -0.1676858,0.20117 -0.1676858,0.20504 0,0.004 0.3116365,0.007 0.6925203,0.007 h 0.692527 z m 0.132635,-0.17214 c 0.058926,-0.0215 0.1037162,-0.0464 0.1037162,-0.0576 0,-0.0403 -0.5482728,-0.69264 -0.6816485,-0.81103 -0.026929,-0.0239 -0.089834,-0.0882 -0.1397498,-0.14284 -0.1562618,-0.17106 -0.2368701,-0.21511 -0.2842834,-0.15535 -0.015587,0.0196 -0.0095,0.0415 0.028386,0.10252 0.026485,0.0427 0.064065,0.10673 0.083504,0.14233 0.048155,0.0882 0.078049,0.13257 0.3678001,0.54625 0.1143799,0.16331 0.281166,0.36983 0.3271917,0.40515 0.033075,0.0254 0.053667,0.0223 0.1950839,-0.0294 z m -1.009816,-0.40174 c 0.01451,-0.01 0.026295,-0.0212 0.026295,-0.0254 0,-0.004 0.029463,-0.0388 0.065484,-0.0767 0.035989,-0.038 0.062918,-0.078 0.059813,-0.0889 -0.00317,-0.0109 -0.082896,-0.0498 -0.1772914,-0.0865 -0.137817,-0.0536 -0.1768223,-0.0638 -0.198023,-0.0519 -0.01451,0.008 -0.026422,0.0225 -0.026422,0.0319 0,0.009 -0.0083,0.0171 -0.018438,0.0171 -0.010138,0 -0.018438,0.006 -0.018438,0.0133 0,0.007 -0.021353,0.0322 -0.047458,0.0553 -0.076534,0.0677 -0.058799,0.09 0.130404,0.16387 0.091215,0.0356 0.1685092,0.065 0.171766,0.0653 0.00317,3.2e-4 0.017804,-0.007 0.032251,-0.0172 z m 0.1926249,-0.27509 c 0.03073,-0.0545 0.020276,-0.0818 -0.047838,-0.12511 -0.084347,-0.0537 -0.1880122,-0.0582 -0.2575069,-0.0114 -0.044859,0.0303 -0.060763,0.0689 -0.028385,0.0689 0.00925,0 0.073518,0.0221 0.1428102,0.0491 0.069292,0.027 0.1365501,0.0493 0.1494694,0.0497 0.012926,3.3e-4 0.031554,-0.0137 0.041438,-0.0312 z"
           id="path4642-8-2"
           inkscape:connector-curvature="0" />
        <g
           transform="translate(203.11428,-192.21243)"
           id="g161-8-5"
           style="stroke-width:1.3102994">
          <flowRoot
             xml:space="preserve"
             id="flowRoot392"
             style="font-style:normal;font-variant:normal;font-weight:normal;font-stretch:normal;font-size:13.33333302px;line-height:1.25;font-family:'8514oem';-inkscape-font-specification:'8514oem';letter-spacing:0px;word-spacing:0px;fill:#000000;fill-opacity:1;stroke:none;stroke-width:1.3102994"
             transform="matrix(0.26458333,0,0,0.26458333,-211.72295,-945.60863)"><flowRegion
               id="flowRegion394"
               style="stroke-width:1.3102994"><rect
                 id="rect396"
                 width="21.763792"
                 height="28.165104"
                 x="48.648384"
                 y="985.37891"
                 style="stroke-width:1.3102994" /></flowRegion><flowPara
               id="flowPara398"
               style="stroke-width:1.3102994" /></flowRoot>          <text
             xml:space="preserve"
             style="font-style:normal;font-variant:normal;font-weight:normal;font-stretch:normal;font-size:3.52777767px;line-height:1.25;font-family:'8514oem';-inkscape-font-specification:'8514oem';letter-spacing:0px;word-spacing:0px;fill:#000000;fill-opacity:1;stroke:none;stroke-width:0.34668335"
             x="-197.89241"
             y="-38.051582"
             id="text484"><tspan
               sodipodi:role="line"
               id="tspan482"
               x="-197.89241"
               y="-38.051582"
               style="stroke-width:0.34668335">Show distance in:</tspan></text>
          <text
             xml:space="preserve"
             style="font-style:normal;font-variant:normal;font-weight:normal;font-stretch:normal;font-size:3.52777767px;line-height:1.25;font-family:'8514oem';-inkscape-font-specification:'8514oem';letter-spacing:0px;word-spacing:0px;fill:#000000;fill-opacity:1;stroke:none;stroke-width:0.34668335"
             x="-79.637451"
             y="-573.94141"
             id="text624"><tspan
               sodipodi:role="line"
               id="tspan622"
               x="-79.637451"
               y="-570.82013"
               style="stroke-width:0.34668335" /><tspan
               sodipodi:role="line"
               x="-79.637451"
               y="-566.4104"
               style="stroke-width:0.34668335"
               id="tspan626" /></text>
        </g>
        <text
           xml:space="preserve"
           style="font-style:normal;font-variant:normal;font-weight:normal;font-stretch:normal;font-size:3.52777767px;line-height:1.25;font-family:'8514oem';-inkscape-font-specification:'8514oem';letter-spacing:0px;word-spacing:0px;fill:#000000;fill-opacity:1;stroke:none;stroke-width:0.34668335"
           x="4.7470584"
           y="-334.71048"
           id="text309"><tspan
             sodipodi:role="line"
             id="tspan307"
             x="4.7470584"
             y="-334.71048"
             style="stroke-width:0.34668335">Languages :</tspan></text>
        <text
           xml:space="preserve"
           style="font-style:normal;font-variant:normal;font-weight:normal;font-stretch:normal;font-size:3.52777767px;line-height:1.25;font-family:'8514oem';-inkscape-font-specification:'8514oem';letter-spacing:0px;word-spacing:0px;fill:#000000;fill-opacity:1;stroke:none;stroke-width:0.34668335"
           x="34.396118"
           y="-334.47781"
           id="text313"><tspan
             sodipodi:role="line"
             id="tspan311"
             x="34.396118"
             y="-334.47781"
             style="stroke-width:0.34668335">English ( UK )   <tspan
   style="font-size:4.23333311px;stroke-width:0.34668335"
   id="tspan4704" /></tspan></text>
        <text
           xml:space="preserve"
           style="font-style:normal;font-variant:normal;font-weight:normal;font-stretch:normal;font-size:3.52777767px;line-height:1.25;font-family:'8514oem';-inkscape-font-specification:'8514oem';letter-spacing:0px;word-spacing:0px;fill:#000000;fill-opacity:1;stroke:none;stroke-width:0.34668335"
           x="4.3305011"
           y="-275.40067"
           id="text329"><tspan
             sodipodi:role="line"
             id="tspan327"
             x="4.3305011"
             y="-275.40067"
             style="stroke-width:0.34668335">Mail : *******man@gmail.com</tspan><tspan
             sodipodi:role="line"
             x="4.3305011"
             y="-270.99094"
             style="stroke-width:0.34668335"
             id="tspan587" /><tspan
             sodipodi:role="line"
             x="4.3305011"
             y="-266.58121"
             style="stroke-width:0.34668335"
             id="tspan589">Password : ************</tspan><tspan
             sodipodi:role="line"
             x="4.3305011"
             y="-262.17151"
             style="stroke-width:0.34668335"
             id="tspan591" /><tspan
             sodipodi:role="line"
             x="4.3305011"
             y="-257.76178"
             style="stroke-width:0.34668335"
             id="tspan593" /></text>
        <flowRoot
           xml:space="preserve"
           id="flowRoot5095"
           style="font-style:normal;font-variant:normal;font-weight:normal;font-stretch:normal;font-size:13.33333302px;line-height:1.25;font-family:'8514oem';-inkscape-font-specification:'8514oem';letter-spacing:0px;word-spacing:0px;fill:#000000;fill-opacity:1;stroke:none;stroke-width:1.3102994"><flowRegion
             id="flowRegion5097"
             style="stroke-width:1.3102994"><rect
               id="rect5099"
               width="854.34442"
               height="315.89206"
               x="433.155"
               y="2638.3296"
               style="stroke-width:1.3102994" /></flowRegion><flowPara
             id="flowPara5101"
             style="stroke-width:1.3102994" /></flowRoot>        <text
           xml:space="preserve"
           style="font-style:normal;font-variant:normal;font-weight:normal;font-stretch:normal;font-size:1.52802837px;line-height:1.25;font-family:'8514oem';-inkscape-font-specification:'8514oem';letter-spacing:0px;word-spacing:0px;fill:#000000;fill-opacity:1;stroke:none;stroke-width:0.34668335"
           x="9.8011885"
           y="-399.83075"
           id="text5274"
           transform="scale(0.97658595,1.0239754)"><tspan
             sodipodi:role="line"
             id="tspan5272"
             x="9.8011885"
             y="-399.83075"
             style="font-size:4.20207787px;fill:#808080;stroke-width:0.34668335">Search for members or activities.</tspan></text>
        <rect
           style="opacity:1;fill:none;fill-opacity:1;stroke:#000000;stroke-width:0.3472293;stroke-linecap:round;stroke-linejoin:bevel;stroke-miterlimit:4;stroke-dasharray:none;stroke-dashoffset:0;stroke-opacity:1;paint-order:normal"
           id="rect4808-1"
           width="170.08682"
           height="12.390817"
           x="4.672719"
           y="-416.7337"
           ry="6.1954083" />
        <text
           transform="scale(0.83298286,1.2005049)"
           xml:space="preserve"
           style="font-style:normal;font-variant:normal;font-weight:normal;font-stretch:normal;font-size:1.95848668px;line-height:1.25;font-family:'8514oem';-inkscape-font-specification:'8514oem';letter-spacing:0px;word-spacing:0px;fill:#00ba00;fill-opacity:1;stroke:none;stroke-width:0.34668332"
           x="188.18526"
           y="-341.05121"
           id="text4857-3-7-2-6"><tspan
             sodipodi:role="line"
             id="tspan4855-5-6-8-7"
             x="188.18526"
             y="-341.05121"
             style="font-style:normal;font-variant:normal;font-weight:normal;font-stretch:normal;font-size:4.30867147px;font-family:'8514oem';-inkscape-font-specification:'8514oem';fill:#00ba00;stroke-width:0.34668332">Search</tspan></text>
        <path
           style="fill:none;stroke:#000000;stroke-width:0.34668329px;stroke-linecap:butt;stroke-linejoin:miter;stroke-opacity:1"
           d="m 152.03947,-416.87752 0.0262,12.34325"
           id="path4921-1-9"
           inkscape:connector-curvature="0" />
        <text
           xml:space="preserve"
           style="font-style:normal;font-variant:normal;font-weight:normal;font-stretch:normal;font-size:1.3854984px;line-height:1.25;font-family:'8514oem';-inkscape-font-specification:'8514oem';letter-spacing:0px;word-spacing:0px;fill:#000000;fill-opacity:1;stroke:none;stroke-width:0.34668329"
           x="-81.62542"
           y="-381.95566"
           id="text1369"
           transform="scale(0.86239771,1.1595578)"><tspan
             sodipodi:role="line"
             x="-81.62542"
             y="-381.95566"
             style="font-size:4.15649462px;fill:#00ba00;stroke-width:0.34668329"
             id="tspan1371">AZAOUM Souliman </tspan><tspan
             sodipodi:role="line"
             x="-81.62542"
             y="-379.21173"
             style="font-size:4.15649462px;fill:#00ba00;stroke-width:0.34668329"
             id="tspan1375" /><tspan
             sodipodi:role="line"
             x="-81.62542"
             y="-375.02817"
             style="font-size:4.15649462px;fill:#00ba00;stroke-width:0.34668329"
             id="tspan4792">WEB ENTREPRENEUR</tspan></text>
        <text
           xml:space="preserve"
           style="font-style:normal;font-variant:normal;font-weight:normal;font-stretch:normal;font-size:1.63468254px;line-height:1.25;font-family:'8514oem';-inkscape-font-specification:'8514oem';letter-spacing:0px;word-spacing:0px;fill:#000000;fill-opacity:1;stroke:none;stroke-width:0.34668329"
           x="266.8382"
           y="-326.09988"
           id="text4839-9-0"
           transform="scale(0.79841754,1.2524775)"><tspan
             sodipodi:role="line"
             id="tspan4837-4-6"
             x="266.8382"
             y="-326.09988"
             style="font-size:4.49537754px;fill:#ff0000;stroke-width:0.34668329">3270 011 023 977</tspan></text>
        <text
           xml:space="preserve"
           style="font-style:normal;font-variant:normal;font-weight:normal;font-stretch:normal;font-size:1.63468254px;line-height:1.25;font-family:'8514oem';-inkscape-font-specification:'8514oem';letter-spacing:0px;word-spacing:0px;fill:#000000;fill-opacity:1;stroke:none;stroke-width:0.34668329"
           x="-86.789467"
           y="-325.67624"
           id="text4885"
           transform="scale(0.79841754,1.2524775)"><tspan
             sodipodi:role="line"
             id="tspan4883"
             x="-86.789467"
             y="-325.67624"
             style="font-style:normal;font-variant:normal;font-weight:bold;font-stretch:normal;font-size:8.17341328px;font-family:'8514oem';-inkscape-font-specification:'8514oem Bold';fill:#00ba00;stroke-width:0.34668329">Vaqqer</tspan></text>
        <g
           transform="matrix(1.127421,0,0,1.5313357,85.510602,-893.24693)"
           id="layer1-6-3-4"
           inkscape:label="Calque 1"
           style="fill:none;stroke-width:0.99722284">
          <g
             id="g4866-8-3"
             transform="translate(-179.37637,57.519239)"
             style="stroke-width:0.99722284">
            <g
               style="stroke-width:0.7654022"
               transform="matrix(1.221411,0,0,1.3897708,-40.549991,-91.634386)"
               id="g6360-74-4">
              <rect
                 y="234.81837"
                 x="182.32938"
                 height="2.2164392"
                 width="4.017899"
                 id="rect4488-0-8"
                 style="opacity:1;fill:none;fill-opacity:1;stroke:#008000;stroke-width:0.30616081;stroke-linecap:round;stroke-linejoin:miter;stroke-miterlimit:4;stroke-dasharray:none;stroke-dashoffset:0;stroke-opacity:1;paint-order:normal" />
              <path
                 sodipodi:nodetypes="cccc"
                 style="fill:#ffffff;stroke:#ff0000;stroke-width:0.27937177;stroke-linecap:butt;stroke-linejoin:miter;stroke-miterlimit:4;stroke-dasharray:none;stroke-opacity:1"
                 d="m 181.61983,234.25631 2.69915,-2.10285 2.68497,2.10198 z"
                 id="path4830-6-6"
                 inkscape:connector-curvature="0" />
            </g>
          </g>
        </g>
        <g
           transform="matrix(0.99349863,0,0,1.6268837,131.30295,-920.66077)"
           id="layer1-8-0"
           inkscape:label="Calque 1"
           style="fill:none;stroke-width:1.03064406">
          <g
             style="stroke-width:6.02718544"
             transform="matrix(0.19148451,0,0,0.15270543,9.9104468,263.91176)"
             id="g4998-9-8">
            <path
               inkscape:transform-center-y="-3.2224263"
               inkscape:transform-center-x="-0.0020659343"
               d="m 52.418113,208.92037 -11.169007,0.004 -11.169007,0.004 5.581404,-9.67443 5.581404,-9.67443 5.587603,9.67085 z"
               inkscape:randomized="0"
               inkscape:rounded="0"
               inkscape:flatsided="false"
               sodipodi:arg2="1.5704759"
               sodipodi:arg1="0.52327832"
               sodipodi:r2="6.4484296"
               sodipodi:r1="12.896859"
               sodipodi:cy="202.47552"
               sodipodi:cx="41.24704"
               sodipodi:sides="3"
               id="path4730-6-6-8"
               style="opacity:1;fill:#ffffff;fill-opacity:1;stroke:#ff0000;stroke-width:1.54081213;stroke-linecap:round;stroke-linejoin:round;stroke-miterlimit:4;stroke-dasharray:none;stroke-dashoffset:0;stroke-opacity:1;paint-order:normal"
               sodipodi:type="star"
               transform="matrix(1.3665218,0,0,1.4917595,-81.498578,-109.16465)" />
            <ellipse
               ry="9.934638"
               rx="12.32984"
               cy="174.29277"
               cx="-24.546463"
               id="path4728-4-8-9"
               style="opacity:1;fill:#ffffff;fill-opacity:1;stroke:#008000;stroke-width:2.80264115;stroke-linecap:round;stroke-linejoin:round;stroke-miterlimit:4;stroke-dasharray:none;stroke-dashoffset:0;stroke-opacity:1;paint-order:normal" />
          </g>
        </g>
        <g
           id="g4910-7"
           transform="matrix(0.43040046,0,0,0.52042408,11.186186,-186.71911)"
           style="fill:none;stroke-width:2.76856947">
          <g
             id="g4935-3"
             transform="matrix(0.79779169,0,0,0.9798573,106.26698,-12.431917)"
             style="stroke-width:3.13133335">
            <path
               style="fill:#ff0000;stroke:#ff0000;stroke-width:3.02173638;stroke-linecap:butt;stroke-linejoin:miter;stroke-miterlimit:4;stroke-dasharray:none;stroke-opacity:1"
               d="m 525.53221,-501.20554 h 25.94921"
               id="path4872-95"
               inkscape:connector-curvature="0" />
            <path
               style="fill:#ff0000;stroke:#ff0000;stroke-width:3.02173638;stroke-linecap:butt;stroke-linejoin:miter;stroke-miterlimit:4;stroke-dasharray:none;stroke-opacity:1"
               d="m 525.53221,-493.42916 h 25.94921"
               id="path4872-0-3"
               inkscape:connector-curvature="0" />
            <path
               style="fill:#ff0000;stroke:#ff0000;stroke-width:3.02173638;stroke-linecap:butt;stroke-linejoin:miter;stroke-miterlimit:4;stroke-dasharray:none;stroke-opacity:1"
               d="m 525.53221,-486.02078 h 25.94921"
               id="path4872-9-3"
               inkscape:connector-curvature="0" />
          </g>
        </g>
        <path
           sodipodi:type="star"
           style="opacity:1;fill:none;fill-opacity:1;stroke:#ff0000;stroke-width:0.60653389;stroke-linecap:round;stroke-linejoin:bevel;stroke-miterlimit:4;stroke-dasharray:none;stroke-dashoffset:0;stroke-opacity:1;paint-order:normal"
           id="path5020-5-0"
           sodipodi:sides="5"
           sodipodi:cx="364.14468"
           sodipodi:cy="-331.59369"
           sodipodi:r1="9.1281252"
           sodipodi:r2="4.5640626"
           sodipodi:arg1="0.83298127"
           sodipodi:arg2="1.4612998"
           inkscape:flatsided="false"
           inkscape:rounded="0"
           inkscape:randomized="0"
           d="m 370.28493,-324.83942 -5.6415,-2.21754 -5.025,3.39017 0.36569,-6.05063 -4.77705,-3.73144 5.86749,-1.52196 2.07262,-5.69633 3.26063,5.11001 6.058,0.21092 -3.85232,4.68012 z"
           inkscape:transform-center-x="0.41194351"
           inkscape:transform-center-y="-0.5280454"
           transform="matrix(0.53736588,0.0595429,-0.08942644,0.59998265,-44.600933,-267.90967)" />
        <text
           xml:space="preserve"
           style="font-style:normal;font-variant:normal;font-weight:normal;font-stretch:normal;font-size:6.47142315px;line-height:1.25;font-family:'8514oem';-inkscape-font-specification:'8514oem';letter-spacing:0px;word-spacing:0px;fill:#4d4d4d;fill-opacity:1;stroke:none;stroke-width:0.34668335"
           x="118.07271"
           y="-377.18912"
           id="text4660"
           transform="scale(0.85313,1.1721543)"><tspan
             sodipodi:role="line"
             id="tspan4658"
             x="118.07271"
             y="-377.18912"
             style="font-size:5.54693365px;fill:#4d4d4d;stroke-width:0.34668335">Home</tspan></text>
        <text
           xml:space="preserve"
           style="font-style:normal;font-variant:normal;font-weight:normal;font-stretch:normal;font-size:3.69795609px;line-height:1.25;font-family:'8514oem';-inkscape-font-specification:'8514oem';letter-spacing:0px;word-spacing:0px;fill:#4d4d4d;fill-opacity:1;stroke:none;stroke-width:0.34668335"
           x="168.94588"
           y="-376.77325"
           id="text4664"
           transform="scale(0.85313,1.1721543)"><tspan
             sodipodi:role="line"
             id="tspan4662"
             x="168.94588"
             y="-376.77325"
             style="font-size:5.54693365px;fill:#4d4d4d;stroke-width:0.34668335">Profil</tspan></text>
        <text
           xml:space="preserve"
           style="font-style:normal;font-variant:normal;font-weight:normal;font-stretch:normal;font-size:5.54693365px;line-height:1.25;font-family:'8514oem';-inkscape-font-specification:'8514oem';letter-spacing:0px;word-spacing:0px;fill:#4d4d4d;fill-opacity:1;stroke:none;stroke-width:0.34668335"
           x="221.3456"
           y="-376.77325"
           id="text4668"
           transform="scale(0.85313,1.1721543)"><tspan
             sodipodi:role="line"
             id="tspan4666"
             x="221.3456"
             y="-376.77325"
             style="font-size:5.54693365px;fill:#4d4d4d;stroke-width:0.34668335">Favoris</tspan></text>
      </g>
      <flowRoot
         xml:space="preserve"
         id="flowRoot4678"
         style="font-style:normal;font-variant:normal;font-weight:normal;font-stretch:normal;font-size:10.66666698px;line-height:1.25;font-family:'8514oem';-inkscape-font-specification:'8514oem';letter-spacing:0px;word-spacing:0px;fill:#000000;fill-opacity:1;stroke:none"><flowRegion
           id="flowRegion4680"><rect
             id="rect4682"
             width="2134.9216"
             height="1028.0787"
             x="-248.72874"
             y="250.29663" /></flowRegion><flowPara
           id="flowPara4684" /></flowRoot>    </g>
  </g>
</svg>
